ply
format ascii 1.0
comment VCGLIB generated
element vertex 960
property float x
property float y
property float z
property float nx
property float ny
property float nz
property float texture_u
property float texture_v
element face 320
property list uchar int vertex_indices
end_header
0 0 -1 0.04815031 -0.148189 -0.9877862 0.000000 0.000000
0.203181 -0.147618 -0.96795 0.04815031 -0.148189 -0.9877862 0.203181 -0.147618
-0.077607 -0.238853 -0.96795 0.04815031 -0.148189 -0.9877862 -0.077607 -0.238853
0.723607 -0.525725 -0.44722 0.7229921 -0.4120721 -0.554508 0.723607 -0.525725
0.609547 -0.442856 -0.657519 0.7229921 -0.4120721 -0.554508 0.609547 -0.442856
0.812729 -0.295238 -0.502301 0.7229921 -0.4120721 -0.554508 0.812729 -0.295238
0 0 -1 -0.12606 -0.0915853 -0.987786 0.000000 0.000000
-0.077607 -0.238853 -0.96795 -0.12606 -0.0915853 -0.987786 -0.077607 -0.238853
-0.251147 0 -0.967949 -0.12606 -0.0915853 -0.987786 -0.251147 0.000000
0 0 -1 -0.12606 0.0915853 -0.987786 0.000000 0.000000
-0.251147 0 -0.967949 -0.12606 0.0915853 -0.987786 -0.251147 0.000000
-0.077607 0.238853 -0.96795 -0.12606 0.0915853 -0.987786 -0.077607 0.238853
0 0 -1 0.04815031 0.148189 -0.9877862 0.000000 0.000000
-0.077607 0.238853 -0.96795 0.04815031 0.148189 -0.9877862 -0.077607 0.238853
0.203181 0.147618 -0.96795 0.04815031 0.148189 -0.9877862 0.203181 0.147618
0.723607 -0.525725 -0.44722 0.8192945 -0.4120722 -0.3986892 0.723607 -0.525725
0.812729 -0.295238 -0.502301 0.8192945 -0.4120722 -0.3986892 0.812729 -0.295238
0.860698 -0.442858 -0.251151 0.8192945 -0.4120722 -0.3986892 0.860698 -0.442858
-0.276388 -0.850649 -0.44722 -0.138726 -0.9065327 -0.3986898 -0.276388 -0.850649
-0.029639 -0.864184 -0.502302 -0.138726 -0.9065327 -0.3986898 -0.029639 -0.864184
-0.155215 -0.955422 -0.251152 -0.138726 -0.9065327 -0.3986898 -0.155215 -0.955422
-0.894426 0 -0.447216 -0.9050357 -0.148191 -0.3986849 -0.894426 0.000000
-0.831051 -0.238853 -0.502299 -0.9050357 -0.148191 -0.3986849 -0.831051 -0.238853
-0.956626 -0.147618 -0.251149 -0.9050357 -0.148191 -0.3986849 -0.956626 -0.147618
-0.276388 0.850649 -0.44722 -0.420606 0.814946 -0.39869 -0.276388 0.850649
-0.483971 0.716565 -0.502302 -0.420606 0.814946 -0.39869 -0.483971 0.716565
-0.436007 0.864188 -0.251152 -0.420606 0.814946 -0.39869 -0.436007 0.864188
0.723607 0.525725 -0.44722 0.6450858 0.6518518 -0.3986898 0.723607 0.525725
0.531941 0.681712 -0.502302 0.6450858 0.6518518 -0.3986898 0.531941 0.681712
0.687159 0.681715 -0.251152 0.6450858 0.6518518 -0.3986898 0.687159 0.681715
0.723607 -0.525725 -0.44722 0.7711441 -0.5602651 -0.3023901 0.723607 -0.525725
0.860698 -0.442858 -0.251151 0.7711441 -0.5602651 -0.3023901 0.860698 -0.442858
0.687159 -0.681715 -0.251152 0.7711441 -0.5602651 -0.3023901 0.687159 -0.681715
-0.276388 -0.850649 -0.44722 -0.294548 -0.9065329 -0.30239 -0.276388 -0.850649
-0.155215 -0.955422 -0.251152 -0.294548 -0.9065329 -0.30239 -0.155215 -0.955422
-0.436007 -0.864188 -0.251152 -0.294548 -0.9065329 -0.30239 -0.436007 -0.864188
-0.894426 0 -0.447216 -0.9531853 0 -0.3023871 -0.894426 0.000000
-0.956626 -0.147618 -0.251149 -0.9531853 0 -0.3023871 -0.956626 -0.147618
-0.956626 0.147618 -0.251149 -0.9531853 0 -0.3023871 -0.956626 0.147618
-0.276388 0.850649 -0.44722 -0.294548 0.9065329 -0.30239 -0.276388 0.850649
-0.436007 0.864188 -0.251152 -0.294548 0.9065329 -0.30239 -0.436007 0.864188
-0.155215 0.955422 -0.251152 -0.294548 0.9065329 -0.30239 -0.155215 0.955422
0.723607 0.525725 -0.44722 0.7711441 0.5602651 -0.3023901 0.723607 0.525725
0.687159 0.681715 -0.251152 0.7711441 0.5602651 -0.3023901 0.687159 0.681715
0.860698 0.442858 -0.251151 0.7711441 0.5602651 -0.3023901 0.860698 0.442858
0.276388 -0.850649 0.44722 0.342696 -0.7583399 0.5545089 0.276388 -0.850649
0.483971 -0.716565 0.502302 0.342696 -0.7583399 0.5545089 0.483971 -0.716565
0.232822 -0.716563 0.657519 0.342696 -0.7583399 0.5545089 0.232822 -0.716563
-0.723607 -0.525725 0.44722 -0.615326 -0.560263 0.554508 -0.723607 -0.525725
-0.531941 -0.681712 0.502302 -0.615326 -0.560263 0.554508 -0.531941 -0.681712
-0.609547 -0.442856 0.657519 -0.615326 -0.560263 0.554508 -0.609547 -0.442856
-0.723607 0.525725 0.44722 -0.7229921 0.4120721 0.554508 -0.723607 0.525725
-0.812729 0.295238 0.502301 -0.7229921 0.4120721 0.554508 -0.812729 0.295238
-0.609547 0.442856 0.657519 -0.7229921 0.4120721 0.554508 -0.609547 0.442856
0.276388 0.850649 0.44722 0.168486 0.8149431 0.554509 0.276388 0.850649
0.029639 0.864184 0.502302 0.168486 0.8149431 0.554509 0.029639 0.864184
0.232822 0.716563 0.657519 0.168486 0.8149431 0.554509 0.232822 0.716563
0.894426 0 0.447216 0.827126 0.0915852 0.554504 0.894426 0.000000
0.831051 0.238853 0.502299 0.827126 0.0915852 0.554504 0.831051 0.238853
0.753442 0 0.657515 0.827126 0.0915852 0.554504 0.753442 0.000000
0.251147 0 0.967949 0.12606 0.0915853 0.987786 0.251147 0.000000
0.077607 0.238853 0.96795 0.12606 0.0915853 0.987786 0.077607 0.238853
0 0 1 0.12606 0.0915853 0.987786 0.000000 0.000000
0.52573 0 0.850652 0.391194 0.09145221 0.9157531 0.525730 0.000000
0.3618 0.262863 0.894429 0.391194 0.09145221 0.9157531 0.361800 0.262863
0.251147 0 0.967949 0.391194 0.09145221 0.9157531 0.251147 0.000000
0.753442 0 0.657515 0.6441243 0.09145125 0.7594344 0.753442 0.000000
0.638194 0.262864 0.72361 0.6441243 0.09145125 0.7594344 0.638194 0.262864
0.52573 0 0.850652 0.6441243 0.09145125 0.7594344 0.525730 0.000000
0.251147 0 0.967949 0.2333779 0.169558 0.9574888 0.251147 0.000000
0.3618 0.262863 0.894429 0.2333779 0.169558 0.9574888 0.361800 0.262863
0.077607 0.238853 0.96795 0.2333779 0.169558 0.9574888 0.077607 0.238853
0.3618 0.262863 0.894429 0.2078611 0.3437871 0.9157533 0.361800 0.262863
0.162456 0.499995 0.850654 0.2078611 0.3437871 0.9157533 0.162456 0.499995
0.077607 0.238853 0.96795 0.2078611 0.3437871 0.9157533 0.077607 0.238853
0.52573 0 0.850652 0.516844 0.183047 0.8362811 0.525730 0.000000
0.638194 0.262864 0.72361 0.516844 0.183047 0.8362811 0.638194 0.262864
0.3618 0.262863 0.894429 0.516844 0.183047 0.8362811 0.361800 0.262863
0.638194 0.262864 0.72361 0.4911192 0.3568192 0.7946584 0.638194 0.262864
0.447209 0.525728 0.723612 0.4911192 0.3568192 0.7946584 0.447209 0.525728
0.3618 0.262863 0.894429 0.4911192 0.3568192 0.7946584 0.361800 0.262863
0.3618 0.262863 0.894429 0.3337969 0.4349838 0.8362827 0.361800 0.262863
0.447209 0.525728 0.723612 0.3337969 0.4349838 0.8362827 0.447209 0.525728
0.162456 0.499995 0.850654 0.3337969 0.4349838 0.8362827 0.162456 0.499995
0.447209 0.525728 0.723612 0.2860158 0.5843356 0.7594385 0.447209 0.525728
0.232822 0.716563 0.657519 0.2860158 0.5843356 0.7594385 0.232822 0.716563
0.162456 0.499995 0.850654 0.2860158 0.5843356 0.7594385 0.162456 0.499995
0.753442 0 0.657515 0.7520306 0.1695589 0.6369457 0.753442 0.000000
0.831051 0.238853 0.502299 0.7520306 0.1695589 0.6369457 0.831051 0.238853
0.638194 0.262864 0.72361 0.7520306 0.1695589 0.6369457 0.638194 0.262864
0.831051 0.238853 0.502299 0.7261133 0.3437881 0.5954573 0.831051 0.238853
0.688189 0.499997 0.525736 0.7261133 0.3437881 0.5954573 0.688189 0.499997
0.638194 0.262864 0.72361 0.7261133 0.3437881 0.5954573 0.638194 0.262864
0.638194 0.262864 0.72361 0.5987061 0.4349871 0.6725602 0.638194 0.262864
0.688189 0.499997 0.525736 0.5987061 0.4349871 0.6725602 0.688189 0.499997
0.447209 0.525728 0.723612 0.5987061 0.4349871 0.6725602 0.447209 0.525728
0.688189 0.499997 0.525736 0.5513439 0.584335 0.5954599 0.688189 0.499997
0.483971 0.716565 0.502302 0.5513439 0.584335 0.5954599 0.483971 0.716565
0.447209 0.525728 0.723612 0.5513439 0.584335 0.5954599 0.447209 0.525728
0.447209 0.525728 0.723612 0.3936459 0.6628268 0.6369488 0.447209 0.525728
0.483971 0.716565 0.502302 0.3936459 0.6628268 0.6369488 0.483971 0.716565
0.232822 0.716563 0.657519 0.3936459 0.6628268 0.6369488 0.232822 0.716563
0.483971 0.716565 0.502302 0.342696 0.7583399 0.5545089 0.483971 0.716565
0.276388 0.850649 0.44722 0.342696 0.7583399 0.5545089 0.276388 0.850649
0.232822 0.716563 0.657519 0.342696 0.7583399 0.5545089 0.232822 0.716563
0.077607 0.238853 0.96795 -0.04815021 0.148189 0.9877862 0.077607 0.238853
-0.203181 0.147618 0.96795 -0.04815021 0.148189 0.9877862 -0.203181 0.147618
0 0 1 -0.04815021 0.148189 0.9877862 0.000000 0.000000
0.162456 0.499995 0.850654 0.03390832 0.4003072 0.9157534 0.162456 0.499995
-0.138197 0.425319 0.89443 0.03390832 0.4003072 0.9157534 -0.138197 0.425319
0.077607 0.238853 0.96795 0.03390832 0.4003072 0.9157534 0.077607 0.238853
0.232822 0.716563 0.657519 0.112066 0.6408539 0.7594389 0.232822 0.716563
-0.05279 0.688185 0.723612 0.112066 0.6408539 0.7594389 -0.052790 0.688185
0.162456 0.499995 0.850654 0.112066 0.6408539 0.7594389 0.162456 0.499995
0.077607 0.238853 0.96795 -0.0891434 0.274351 0.9574889 0.077607 0.238853
-0.138197 0.425319 0.89443 -0.0891434 0.274351 0.9574889 -0.138197 0.425319
-0.203181 0.147618 0.96795 -0.0891434 0.274351 0.9574889 -0.203181 0.147618
-0.138197 0.425319 0.89443 -0.2627299 0.3039218 0.9157536 -0.138197 0.425319
-0.425323 0.309011 0.850654 -0.2627299 0.3039218 0.9157536 -0.425323 0.309011
-0.203181 0.147618 0.96795 -0.2627299 0.3039218 0.9157536 -0.203181 0.147618
0.162456 0.499995 0.850654 -0.0143742 0.5481111 0.8362821 0.162456 0.499995
-0.05279 0.688185 0.723612 -0.0143742 0.5481111 0.8362821 -0.052790 0.688185
-0.138197 0.425319 0.89443 -0.0143742 0.5481111 0.8362821 -0.138197 0.425319
-0.05279 0.688185 0.723612 -0.1875941 0.5773432 0.7946593 -0.052790 0.688185
-0.361804 0.587778 0.723612 -0.1875941 0.5773432 0.7946593 -0.361804 0.587778
-0.138197 0.425319 0.89443 -0.1875941 0.5773432 0.7946593 -0.138197 0.425319
-0.138197 0.425319 0.89443 -0.3105469 0.4518779 0.8362817 -0.138197 0.425319
-0.361804 0.587778 0.723612 -0.3105469 0.4518779 0.8362817 -0.361804 0.587778
-0.425323 0.309011 0.850654 -0.3105469 0.4518779 0.8362817 -0.425323 0.309011
-0.361804 0.587778 0.723612 -0.467353 0.452587 0.759438 -0.361804 0.587778
-0.609547 0.442856 0.657519 -0.467353 0.452587 0.759438 -0.609547 0.442856
-0.425323 0.309011 0.850654 -0.467353 0.452587 0.759438 -0.425323 0.309011
0.232822 0.716563 0.657519 0.07112558 0.7676188 0.6369478 0.232822 0.716563
0.029639 0.864184 0.502302 0.07112558 0.7676188 0.6369478 0.029639 0.864184
-0.05279 0.688185 0.723612 0.07112558 0.7676188 0.6369478 -0.052790 0.688185
0.029639 0.864184 0.502302 -0.1025829 0.7968075 0.5954617 0.029639 0.864184
-0.262869 0.809012 0.525738 -0.1025829 0.7968075 0.5954617 -0.262869 0.809012
-0.05279 0.688185 0.723612 -0.1025829 0.7968075 0.5954617 -0.052790 0.688185
-0.05279 0.688185 0.723612 -0.2286891 0.7038172 0.6725642 -0.052790 0.688185
-0.262869 0.809012 0.525738 -0.2286891 0.7038172 0.6725642 -0.262869 0.809012
-0.361804 0.587778 0.723612 -0.2286891 0.7038172 0.6725642 -0.361804 0.587778
-0.262869 0.809012 0.525738 -0.3853689 0.7049227 0.5954618 -0.262869 0.809012
-0.531941 0.681712 0.502302 -0.3853689 0.7049227 0.5954618 -0.531941 0.681712
-0.361804 0.587778 0.723612 -0.3853689 0.7049227 0.5954618 -0.361804 0.587778
-0.361804 0.587778 0.723612 -0.5087421 0.5792051 0.6369482 -0.361804 0.587778
-0.531941 0.681712 0.502302 -0.5087421 0.5792051 0.6369482 -0.531941 0.681712
-0.609547 0.442856 0.657519 -0.5087421 0.5792051 0.6369482 -0.609547 0.442856
-0.531941 0.681712 0.502302 -0.615326 0.560263 0.554508 -0.531941 0.681712
-0.723607 0.525725 0.44722 -0.615326 0.560263 0.554508 -0.723607 0.525725
-0.609547 0.442856 0.657519 -0.615326 0.560263 0.554508 -0.609547 0.442856
-0.203181 0.147618 0.96795 -0.155815 0 0.9877862 -0.203181 0.147618
-0.203181 -0.147618 0.96795 -0.155815 0 0.9877862 -0.203181 -0.147618
0 0 1 -0.155815 0 0.9877862 0.000000 0.000000
-0.425323 0.309011 0.850654 -0.3702359 0.1559509 0.9157537 -0.425323 0.309011
-0.44721 0 0.894429 -0.3702359 0.1559509 0.9157537 -0.447210 0.000000
-0.203181 0.147618 0.96795 -0.3702359 0.1559509 0.9157537 -0.203181 0.147618
-0.609547 0.442856 0.657519 -0.5748582 0.3046171 0.7594383 -0.609547 0.442856
-0.670817 0.162457 0.723611 -0.5748582 0.3046171 0.7594383 -0.670817 0.162457
-0.425323 0.309011 0.850654 -0.5748582 0.3046171 0.7594383 -0.425323 0.309011
-0.203181 0.147618 0.96795 -0.2884721 0 0.9574884 -0.203181 0.147618
-0.44721 0 0.894429 -0.2884721 0 0.9574884 -0.447210 0.000000
-0.203181 -0.147618 0.96795 -0.2884721 0 0.9574884 -0.203181 -0.147618
-0.44721 0 0.894429 -0.3702359 -0.1559509 0.9157537 -0.447210 0.000000
-0.425323 -0.309011 0.850654 -0.3702359 -0.1559509 0.9157537 -0.425323 -0.309011
-0.203181 -0.147618 0.96795 -0.3702359 -0.1559509 0.9157537 -0.203181 -0.147618
-0.425323 0.309011 0.850654 -0.5257279 0.155706 0.8362809 -0.425323 0.309011
-0.670817 0.162457 0.723611 -0.5257279 0.155706 0.8362809 -0.670817 0.162457
-0.44721 0 0.894429 -0.5257279 0.155706 0.8362809 -0.447210 0.000000
-0.670817 0.162457 0.723611 -0.607056 0 0.794659 -0.670817 0.162457
-0.670817 -0.162457 0.723611 -0.607056 0 0.794659 -0.670817 -0.162457
-0.44721 0 0.894429 -0.607056 0 0.794659 -0.447210 0.000000
-0.44721 0 0.894429 -0.5257279 -0.155706 0.8362809 -0.447210 0.000000
-0.670817 -0.162457 0.723611 -0.5257279 -0.155706 0.8362809 -0.670817 -0.162457
-0.425323 -0.309011 0.850654 -0.5257279 -0.155706 0.8362809 -0.425323 -0.309011
-0.670817 -0.162457 0.723611 -0.5748582 -0.3046171 0.7594383 -0.670817 -0.162457
-0.609547 -0.442856 0.657519 -0.5748582 -0.3046171 0.7594383 -0.609547 -0.442856
-0.425323 -0.309011 0.850654 -0.5748582 -0.3046171 0.7594383 -0.425323 -0.309011
-0.609547 0.442856 0.657519 -0.708071 0.304853 0.636946 -0.609547 0.442856
-0.812729 0.295238 0.502301 -0.708071 0.304853 0.636946 -0.812729 0.295238
-0.670817 0.162457 0.723611 -0.708071 0.304853 0.636946 -0.670817 0.162457
-0.812729 0.295238 0.502301 -0.7895103 0.1486671 0.5954592 -0.812729 0.295238
-0.850648 0 0.525736 -0.7895103 0.1486671 0.5954592 -0.850648 0.000000
-0.670817 0.162457 0.723611 -0.7895103 0.1486671 0.5954592 -0.670817 0.162457
-0.670817 0.162457 0.723611 -0.7400432 0 0.6725593 -0.670817 0.162457
-0.850648 0 0.525736 -0.7400432 0 0.6725593 -0.850648 0.000000
-0.670817 -0.162457 0.723611 -0.7400432 0 0.6725593 -0.670817 -0.162457
-0.850648 0 0.525736 -0.7895103 -0.1486671 0.5954592 -0.850648 0.000000
-0.812729 -0.295238 0.502301 -0.7895103 -0.1486671 0.5954592 -0.812729 -0.295238
-0.670817 -0.162457 0.723611 -0.7895103 -0.1486671 0.5954592 -0.670817 -0.162457
-0.670817 -0.162457 0.723611 -0.708071 -0.304853 0.636946 -0.670817 -0.162457
-0.812729 -0.295238 0.502301 -0.708071 -0.304853 0.636946 -0.812729 -0.295238
-0.609547 -0.442856 0.657519 -0.708071 -0.304853 0.636946 -0.609547 -0.442856
-0.812729 -0.295238 0.502301 -0.7229921 -0.4120721 0.554508 -0.812729 -0.295238
-0.723607 -0.525725 0.44722 -0.7229921 -0.4120721 0.554508 -0.723607 -0.525725
-0.609547 -0.442856 0.657519 -0.7229921 -0.4120721 0.554508 -0.609547 -0.442856
-0.203181 -0.147618 0.96795 -0.04815021 -0.148189 0.9877862 -0.203181 -0.147618
0.077607 -0.238853 0.96795 -0.04815021 -0.148189 0.9877862 0.077607 -0.238853
0 0 1 -0.04815021 -0.148189 0.9877862 0.000000 0.000000
-0.425323 -0.309011 0.850654 -0.2627299 -0.3039218 0.9157536 -0.425323 -0.309011
-0.138197 -0.425319 0.89443 -0.2627299 -0.3039218 0.9157536 -0.138197 -0.425319
-0.203181 -0.147618 0.96795 -0.2627299 -0.3039218 0.9157536 -0.203181 -0.147618
-0.609547 -0.442856 0.657519 -0.467353 -0.452587 0.759438 -0.609547 -0.442856
-0.361804 -0.587778 0.723612 -0.467353 -0.452587 0.759438 -0.361804 -0.587778
-0.425323 -0.309011 0.850654 -0.467353 -0.452587 0.759438 -0.425323 -0.309011
-0.203181 -0.147618 0.96795 -0.0891434 -0.274351 0.9574889 -0.203181 -0.147618
-0.138197 -0.425319 0.89443 -0.0891434 -0.274351 0.9574889 -0.138197 -0.425319
0.077607 -0.238853 0.96795 -0.0891434 -0.274351 0.9574889 0.077607 -0.238853
-0.138197 -0.425319 0.89443 0.03390832 -0.4003072 0.9157534 -0.138197 -0.425319
0.162456 -0.499995 0.850654 0.03390832 -0.4003072 0.9157534 0.162456 -0.499995
0.077607 -0.238853 0.96795 0.03390832 -0.4003072 0.9157534 0.077607 -0.238853
-0.425323 -0.309011 0.850654 -0.3105469 -0.4518779 0.8362817 -0.425323 -0.309011
-0.361804 -0.587778 0.723612 -0.3105469 -0.4518779 0.8362817 -0.361804 -0.587778
-0.138197 -0.425319 0.89443 -0.3105469 -0.4518779 0.8362817 -0.138197 -0.425319
-0.361804 -0.587778 0.723612 -0.1875941 -0.5773432 0.7946593 -0.361804 -0.587778
-0.05279 -0.688185 0.723612 -0.1875941 -0.5773432 0.7946593 -0.052790 -0.688185
-0.138197 -0.425319 0.89443 -0.1875941 -0.5773432 0.7946593 -0.138197 -0.425319
-0.138197 -0.425319 0.89443 -0.0143742 -0.5481111 0.8362821 -0.138197 -0.425319
-0.05279 -0.688185 0.723612 -0.0143742 -0.5481111 0.8362821 -0.052790 -0.688185
0.162456 -0.499995 0.850654 -0.0143742 -0.5481111 0.8362821 0.162456 -0.499995
-0.05279 -0.688185 0.723612 0.112066 -0.6408539 0.7594389 -0.052790 -0.688185
0.232822 -0.716563 0.657519 0.112066 -0.6408539 0.7594389 0.232822 -0.716563
0.162456 -0.499995 0.850654 0.112066 -0.6408539 0.7594389 0.162456 -0.499995
-0.609547 -0.442856 0.657519 -0.5087421 -0.5792051 0.6369482 -0.609547 -0.442856
-0.531941 -0.681712 0.502302 -0.5087421 -0.5792051 0.6369482 -0.531941 -0.681712
-0.361804 -0.587778 0.723612 -0.5087421 -0.5792051 0.6369482 -0.361804 -0.587778
-0.531941 -0.681712 0.502302 -0.3853689 -0.7049227 0.5954618 -0.531941 -0.681712
-0.262869 -0.809012 0.525738 -0.3853689 -0.7049227 0.5954618 -0.262869 -0.809012
-0.361804 -0.587778 0.723612 -0.3853689 -0.7049227 0.5954618 -0.361804 -0.587778
-0.361804 -0.587778 0.723612 -0.2286891 -0.7038172 0.6725642 -0.361804 -0.587778
-0.262869 -0.809012 0.525738 -0.2286891 -0.7038172 0.6725642 -0.262869 -0.809012
-0.05279 -0.688185 0.723612 -0.2286891 -0.7038172 0.6725642 -0.052790 -0.688185
-0.262869 -0.809012 0.525738 -0.1025829 -0.7968075 0.5954617 -0.262869 -0.809012
0.029639 -0.864184 0.502302 -0.1025829 -0.7968075 0.5954617 0.029639 -0.864184
-0.05279 -0.688185 0.723612 -0.1025829 -0.7968075 0.5954617 -0.052790 -0.688185
-0.05279 -0.688185 0.723612 0.07112558 -0.7676188 0.6369478 -0.052790 -0.688185
0.029639 -0.864184 0.502302 0.07112558 -0.7676188 0.6369478 0.029639 -0.864184
0.232822 -0.716563 0.657519 0.07112558 -0.7676188 0.6369478 0.232822 -0.716563
0.029639 -0.864184 0.502302 0.168486 -0.8149431 0.554509 0.029639 -0.864184
0.276388 -0.850649 0.44722 0.168486 -0.8149431 0.554509 0.276388 -0.850649
0.232822 -0.716563 0.657519 0.168486 -0.8149431 0.554509 0.232822 -0.716563
0.077607 -0.238853 0.96795 0.12606 -0.0915853 0.987786 0.077607 -0.238853
0.251147 0 0.967949 0.12606 -0.0915853 0.987786 0.251147 0.000000
0 0 1 0.12606 -0.0915853 0.987786 0.000000 0.000000
0.162456 -0.499995 0.850654 0.2078611 -0.3437871 0.9157533 0.162456 -0.499995
0.3618 -0.262863 0.894429 0.2078611 -0.3437871 0.9157533 0.361800 -0.262863
0.077607 -0.238853 0.96795 0.2078611 -0.3437871 0.9157533 0.077607 -0.238853
0.232822 -0.716563 0.657519 0.2860158 -0.5843356 0.7594385 0.232822 -0.716563
0.447209 -0.525728 0.723612 0.2860158 -0.5843356 0.7594385 0.447209 -0.525728
0.162456 -0.499995 0.850654 0.2860158 -0.5843356 0.7594385 0.162456 -0.499995
0.077607 -0.238853 0.96795 0.2333779 -0.169558 0.9574888 0.077607 -0.238853
0.3618 -0.262863 0.894429 0.2333779 -0.169558 0.9574888 0.361800 -0.262863
0.251147 0 0.967949 0.2333779 -0.169558 0.9574888 0.251147 0.000000
0.3618 -0.262863 0.894429 0.391194 -0.09145221 0.9157531 0.361800 -0.262863
0.52573 0 0.850652 0.391194 -0.09145221 0.9157531 0.525730 0.000000
0.251147 0 0.967949 0.391194 -0.09145221 0.9157531 0.251147 0.000000
0.162456 -0.499995 0.850654 0.3337969 -0.4349838 0.8362827 0.162456 -0.499995
0.447209 -0.525728 0.723612 0.3337969 -0.4349838 0.8362827 0.447209 -0.525728
0.3618 -0.262863 0.894429 0.3337969 -0.4349838 0.8362827 0.361800 -0.262863
0.447209 -0.525728 0.723612 0.4911189 -0.3568189 0.7946588 0.447209 -0.525728
0.638194 -0.262864 0.72361 0.4911189 -0.3568189 0.7946588 0.638194 -0.262864
0.3618 -0.262863 0.894429 0.4911189 -0.3568189 0.7946588 0.361800 -0.262863
0.3618 -0.262863 0.894429 0.516844 -0.183047 0.8362811 0.361800 -0.262863
0.638194 -0.262864 0.72361 0.516844 -0.183047 0.8362811 0.638194 -0.262864
0.52573 0 0.850652 0.516844 -0.183047 0.8362811 0.525730 0.000000
0.638194 -0.262864 0.72361 0.6441243 -0.09145125 0.7594344 0.638194 -0.262864
0.753442 0 0.657515 0.6441243 -0.09145125 0.7594344 0.753442 0.000000
0.52573 0 0.850652 0.6441243 -0.09145125 0.7594344 0.525730 0.000000
0.232822 -0.716563 0.657519 0.3936459 -0.6628268 0.6369488 0.232822 -0.716563
0.483971 -0.716565 0.502302 0.3936459 -0.6628268 0.6369488 0.483971 -0.716565
0.447209 -0.525728 0.723612 0.3936459 -0.6628268 0.6369488 0.447209 -0.525728
0.483971 -0.716565 0.502302 0.5513439 -0.584335 0.5954599 0.483971 -0.716565
0.688189 -0.499997 0.525736 0.5513439 -0.584335 0.5954599 0.688189 -0.499997
0.447209 -0.525728 0.723612 0.5513439 -0.584335 0.5954599 0.447209 -0.525728
0.447209 -0.525728 0.723612 0.5987061 -0.4349871 0.6725602 0.447209 -0.525728
0.688189 -0.499997 0.525736 0.5987061 -0.4349871 0.6725602 0.688189 -0.499997
0.638194 -0.262864 0.72361 0.5987061 -0.4349871 0.6725602 0.638194 -0.262864
0.688189 -0.499997 0.525736 0.7261133 -0.3437881 0.5954573 0.688189 -0.499997
0.831051 -0.238853 0.502299 0.7261133 -0.3437881 0.5954573 0.831051 -0.238853
0.638194 -0.262864 0.72361 0.7261133 -0.3437881 0.5954573 0.638194 -0.262864
0.638194 -0.262864 0.72361 0.7520306 -0.1695589 0.6369457 0.638194 -0.262864
0.831051 -0.238853 0.502299 0.7520306 -0.1695589 0.6369457 0.831051 -0.238853
0.753442 0 0.657515 0.7520306 -0.1695589 0.6369457 0.753442 0.000000
0.831051 -0.238853 0.502299 0.827126 -0.0915852 0.554504 0.831051 -0.238853
0.894426 0 0.447216 0.827126 -0.0915852 0.554504 0.894426 0.000000
0.753442 0 0.657515 0.827126 -0.0915852 0.554504 0.753442 0.000000
0.956626 0.147618 0.251149 0.9050357 0.148191 0.3986849 0.956626 0.147618
0.831051 0.238853 0.502299 0.9050357 0.148191 0.3986849 0.831051 0.238853
0.894426 0 0.447216 0.9050357 0.148191 0.3986849 0.894426 0.000000
0.951058 0.309013 0 0.9365709 0.303923 0.174545 0.951058 0.309013
0.861804 0.425322 0.276396 0.9365709 0.303923 0.174545 0.861804 0.425322
0.956626 0.147618 0.251149 0.9365709 0.303923 0.174545 0.956626 0.147618
0.860698 0.442858 -0.251151 0.8882663 0.4525911 -0.07838573 0.860698 0.442858
0.809019 0.587782 0 0.8882663 0.4525911 -0.07838573 0.809019 0.587782
0.951058 0.309013 0 0.8882663 0.4525911 -0.07838573 0.951058 0.309013
0.956626 0.147618 0.251149 0.8962697 0.2743499 0.3484719 0.956626 0.147618
0.861804 0.425322 0.276396 0.8962697 0.2743499 0.3484719 0.861804 0.425322
0.831051 0.238853 0.502299 0.8962697 0.2743499 0.3484719 0.831051 0.238853
0.861804 0.425322 0.276396 0.803907 0.40031 0.43987 0.861804 0.425322
0.688189 0.499997 0.525736 0.803907 0.40031 0.43987 0.688189 0.499997
0.831051 0.238853 0.502299 0.803907 0.40031 0.43987 0.831051 0.238853
0.951058 0.309013 0 0.8868722 0.4518811 0.09623531 0.951058 0.309013
0.809019 0.587782 0 0.8868722 0.4518811 0.09623531 0.809019 0.587782
0.861804 0.425322 0.276396 0.8868722 0.4518811 0.09623531 0.861804 0.425322
0.809019 0.587782 0 0.794656 0.5773481 0.187593 0.809019 0.587782
0.670821 0.688189 0.276397 0.794656 0.5773481 0.187593 0.670821 0.688189
0.861804 0.425322 0.276396 0.794656 0.5773481 0.187593 0.861804 0.425322
0.861804 0.425322 0.276396 0.7544184 0.5481123 0.3611452 0.861804 0.425322
0.670821 0.688189 0.276397 0.7544184 0.5481123 0.3611452 0.670821 0.688189
0.688189 0.499997 0.525736 0.7544184 0.5481123 0.3611452 0.688189 0.499997
0.670821 0.688189 0.276397 0.6291378 0.6408568 0.4398729 0.670821 0.688189
0.483971 0.716565 0.502302 0.6291378 0.6408568 0.4398729 0.483971 0.716565
0.688189 0.499997 0.525736 0.6291378 0.6408568 0.4398729 0.688189 0.499997
0.860698 0.442858 -0.251151 0.7972167 0.5792089 -0.1701839 0.860698 0.442858
0.687159 0.681715 -0.251152 0.7972167 0.5792089 -0.1701839 0.687159 0.681715
0.809019 0.587782 0 0.7972167 0.5792089 -0.1701839 0.809019 0.587782
0.687159 0.681715 -0.251152 0.704934 0.704928 -0.078388 0.687159 0.681715
0.587786 0.809017 -0 0.704934 0.704928 -0.078388 0.587786 0.809017
0.809019 0.587782 0 0.704934 0.704928 -0.078388 0.809019 0.587782
0.809019 0.587782 0 0.7038279 0.703822 0.09623478 0.809019 0.587782
0.587786 0.809017 -0 0.7038279 0.703822 0.09623478 0.587786 0.809017
0.670821 0.688189 0.276397 0.7038279 0.703822 0.09623478 0.670821 0.688189
0.587786 0.809017 -0 0.5784657 0.7968127 0.1745479 0.587786 0.809017
0.436007 0.864188 0.251152 0.5784657 0.7968127 0.1745479 0.436007 0.864188
0.670821 0.688189 0.276397 0.5784657 0.7968127 0.1745479 0.670821 0.688189
0.670821 0.688189 0.276397 0.5378868 0.7676217 0.3484749 0.670821 0.688189
0.436007 0.864188 0.251152 0.5378868 0.7676217 0.3484749 0.436007 0.864188
0.483971 0.716565 0.502302 0.5378868 0.7676217 0.3484749 0.483971 0.716565
0.436007 0.864188 0.251152 0.420606 0.814946 0.39869 0.436007 0.864188
0.276388 0.850649 0.44722 0.420606 0.814946 0.39869 0.276388 0.850649
0.483971 0.716565 0.502302 0.420606 0.814946 0.39869 0.483971 0.716565
0.155215 0.955422 0.251152 0.138726 0.9065327 0.3986898 0.155215 0.955422
0.029639 0.864184 0.502302 0.138726 0.9065327 0.3986898 0.029639 0.864184
0.276388 0.850649 0.44722 0.138726 0.9065327 0.3986898 0.276388 0.850649
0 1 0 0.000362746 0.9846491 0.174545 0.000000 1.000000
-0.138199 0.951055 0.276397 0.000362746 0.9846491 0.174545 -0.138199 0.951055
0.155215 0.955422 0.251152 0.000362746 0.9846491 0.174545 0.155215 0.955422
-0.155215 0.955422 -0.251152 -0.155952 0.9846492 -0.07838922 -0.155215 0.955422
-0.309016 0.951057 -0 -0.155952 0.9846492 -0.07838922 -0.309016 0.951057
0 1 0 -0.155952 0.9846492 -0.07838922 0.000000 1.000000
0.155215 0.955422 0.251152 0.0160341 0.9371802 0.3484771 0.155215 0.955422
-0.138199 0.951055 0.276397 0.0160341 0.9371802 0.3484771 -0.138199 0.951055
0.029639 0.864184 0.502302 0.0160341 0.9371802 0.3484771 0.029639 0.864184
-0.138199 0.951055 0.276397 -0.132299 0.8882627 0.4398709 -0.138199 0.951055
-0.262869 0.809012 0.525738 -0.132299 0.8882627 0.4398709 -0.262869 0.809012
0.029639 0.864184 0.502302 -0.132299 0.8882627 0.4398709 0.029639 0.864184
0 1 0 -0.155707 0.9831042 0.09623642 0.000000 1.000000
-0.309016 0.951057 -0 -0.155707 0.9831042 0.09623642 -0.309016 0.951057
-0.138199 0.951055 0.276397 -0.155707 0.9831042 0.09623642 -0.138199 0.951055
-0.309016 0.951057 -0 -0.3035328 0.9341716 0.1875939 -0.309016 0.951057
-0.447215 0.850649 0.276397 -0.3035328 0.9341716 0.1875939 -0.447215 0.850649
-0.138199 0.951055 0.276397 -0.3035328 0.9341716 0.1875939 -0.138199 0.951055
-0.138199 0.951055 0.276397 -0.288163 0.8868689 0.361145 -0.138199 0.951055
-0.447215 0.850649 0.276397 -0.288163 0.8868689 0.361145 -0.447215 0.850649
-0.262869 0.809012 0.525738 -0.288163 0.8868689 0.361145 -0.262869 0.809012
-0.447215 0.850649 0.276397 -0.4150848 0.7963777 0.4398718 -0.447215 0.850649
-0.531941 0.681712 0.502302 -0.4150848 0.7963777 0.4398718 -0.531941 0.681712
-0.262869 0.809012 0.525738 -0.4150848 0.7963777 0.4398718 -0.262869 0.809012
-0.155215 0.955422 -0.251152 -0.3045061 0.9371834 -0.1701861 -0.155215 0.955422
-0.436007 0.864188 -0.251152 -0.3045061 0.9371834 -0.1701861 -0.436007 0.864188
-0.309016 0.951057 -0 -0.3045061 0.9371834 -0.1701861 -0.309016 0.951057
-0.436007 0.864188 -0.251152 -0.4525922 0.8882654 -0.07838903 -0.436007 0.864188
-0.587786 0.809017 -0 -0.4525922 0.8882654 -0.07838903 -0.587786 0.809017
-0.309016 0.951057 -0 -0.4525922 0.8882654 -0.07838903 -0.309016 0.951057
-0.309016 0.951057 -0 -0.4518819 0.8868718 0.09623598 -0.309016 0.951057
-0.587786 0.809017 -0 -0.4518819 0.8868718 0.09623598 -0.587786 0.809017
-0.447215 0.850649 0.276397 -0.4518819 0.8868718 0.09623598 -0.447215 0.850649
-0.587786 0.809017 -0 -0.5790607 0.7963806 0.1745469 -0.587786 0.809017
-0.687159 0.681715 0.251152 -0.5790607 0.7963806 0.1745469 -0.687159 0.681715
-0.447215 0.850649 0.276397 -0.5790607 0.7963806 0.1745469 -0.447215 0.850649
-0.447215 0.850649 0.276397 -0.5638373 0.7487664 0.3484772 -0.447215 0.850649
-0.687159 0.681715 0.251152 -0.5638373 0.7487664 0.3484772 -0.687159 0.681715
-0.531941 0.681712 0.502302 -0.5638373 0.7487664 0.3484772 -0.531941 0.681712
-0.687159 0.681715 0.251152 -0.6450858 0.6518518 0.3986898 -0.687159 0.681715
-0.723607 0.525725 0.44722 -0.6450858 0.6518518 0.3986898 -0.723607 0.525725
-0.531941 0.681712 0.502302 -0.6450858 0.6518518 0.3986898 -0.531941 0.681712
-0.860698 0.442858 0.251151 -0.8192945 0.4120722 0.3986892 -0.860698 0.442858
-0.812729 0.295238 0.502301 -0.8192945 0.4120722 0.3986892 -0.812729 0.295238
-0.723607 0.525725 0.44722 -0.8192945 0.4120722 0.3986892 -0.723607 0.525725
-0.951058 0.309013 0 -0.9363459 0.304616 0.174544 -0.951058 0.309013
-0.947213 0.162458 0.276396 -0.9363459 0.304616 0.174544 -0.947213 0.162458
-0.860698 0.442858 0.251151 -0.9363459 0.304616 0.174544 -0.860698 0.442858
-0.956626 0.147618 -0.251149 -0.9846497 0.1559499 -0.07838787 -0.956626 0.147618
-1 -0 1e-06 -0.9846497 0.1559499 -0.07838787 -1.000000 -0.000000
-0.951058 0.309013 0 -0.9846497 0.1559499 -0.07838787 -0.951058 0.309013
-0.860698 0.442858 0.251151 -0.8863572 0.3048521 0.3484771 -0.860698 0.442858
-0.947213 0.162458 0.276396 -0.8863572 0.3048521 0.3484771 -0.947213 0.162458
-0.812729 0.295238 0.502301 -0.8863572 0.3048521 0.3484771 -0.812729 0.295238
-0.947213 0.162458 0.276396 -0.8856711 0.148667 0.439869 -0.947213 0.162458
-0.850648 0 0.525736 -0.8856711 0.148667 0.439869 -0.850648 0.000000
-0.812729 0.295238 0.502301 -0.8856711 0.148667 0.439869 -0.812729 0.295238
-0.951058 0.309013 0 -0.9831043 0.1557061 0.09623703 -0.951058 0.309013
-1 -0 1e-06 -0.9831043 0.1557061 0.09623703 -1.000000 -0.000000
-0.947213 0.162458 0.276396 -0.9831043 0.1557061 0.09623703 -0.947213 0.162458
-1 -0 1e-06 -0.9822469 5.704359e-07 0.187593 -1.000000 -0.000000
-0.947213 -0.162458 0.276397 -0.9822469 5.704359e-07 0.187593 -0.947213 -0.162458
-0.947213 0.162458 0.276396 -0.9822469 5.704359e-07 0.187593 -0.947213 0.162458
-0.947213 0.162458 0.276396 -0.9325097 1.09314e-06 0.3611449 -0.947213 0.162458
-0.947213 -0.162458 0.276397 -0.9325097 1.09314e-06 0.3611449 -0.947213 -0.162458
-0.850648 0 0.525736 -0.9325097 1.09314e-06 0.3611449 -0.850648 0.000000
-0.947213 -0.162458 0.276397 -0.8856701 -0.148667 0.4398711 -0.947213 -0.162458
-0.812729 -0.295238 0.502301 -0.8856701 -0.148667 0.4398711 -0.812729 -0.295238
-0.850648 0 0.525736 -0.8856701 -0.148667 0.4398711 -0.850648 0.000000
-0.956626 0.147618 -0.251149 -0.9854127 0 -0.1701819 -0.956626 0.147618
-0.956626 -0.147618 -0.251149 -0.9854127 0 -0.1701819 -0.956626 -0.147618
-1 -0 1e-06 -0.9854127 0 -0.1701819 -1.000000 -0.000000
-0.956626 -0.147618 -0.251149 -0.9846497 -0.1559499 -0.07838787 -0.956626 -0.147618
-0.951058 -0.309013 -0 -0.9846497 -0.1559499 -0.07838787 -0.951058 -0.309013
-1 -0 1e-06 -0.9846497 -0.1559499 -0.07838787 -1.000000 -0.000000
-1 -0 1e-06 -0.9831043 -0.1557061 0.09623674 -1.000000 -0.000000
-0.951058 -0.309013 -0 -0.9831043 -0.1557061 0.09623674 -0.951058 -0.309013
-0.947213 -0.162458 0.276397 -0.9831043 -0.1557061 0.09623674 -0.947213 -0.162458
-0.951058 -0.309013 -0 -0.9363456 -0.3046168 0.1745439 -0.951058 -0.309013
-0.860698 -0.442858 0.251151 -0.9363456 -0.3046168 0.1745439 -0.860698 -0.442858
-0.947213 -0.162458 0.276397 -0.9363456 -0.3046168 0.1745439 -0.947213 -0.162458
-0.947213 -0.162458 0.276397 -0.8863569 -0.304853 0.348477 -0.947213 -0.162458
-0.860698 -0.442858 0.251151 -0.8863569 -0.304853 0.348477 -0.860698 -0.442858
-0.812729 -0.295238 0.502301 -0.8863569 -0.304853 0.348477 -0.812729 -0.295238
-0.860698 -0.442858 0.251151 -0.8192945 -0.4120722 0.3986892 -0.860698 -0.442858
-0.723607 -0.525725 0.44722 -0.8192945 -0.4120722 0.3986892 -0.723607 -0.525725
-0.812729 -0.295238 0.502301 -0.8192945 -0.4120722 0.3986892 -0.812729 -0.295238
-0.687159 -0.681715 0.251152 -0.6450858 -0.6518518 0.3986898 -0.687159 -0.681715
-0.531941 -0.681712 0.502302 -0.6450858 -0.6518518 0.3986898 -0.531941 -0.681712
-0.723607 -0.525725 0.44722 -0.6450858 -0.6518518 0.3986898 -0.723607 -0.525725
-0.587786 -0.809017 0 -0.5790601 -0.7963811 0.174547 -0.587786 -0.809017
-0.447216 -0.850648 0.276397 -0.5790601 -0.7963811 0.174547 -0.447216 -0.850648
-0.687159 -0.681715 0.251152 -0.5790601 -0.7963811 0.174547 -0.687159 -0.681715
-0.436007 -0.864188 -0.251152 -0.4525918 -0.8882657 -0.07838817 -0.436007 -0.864188
-0.309017 -0.951056 -1e-06 -0.4525918 -0.8882657 -0.07838817 -0.309017 -0.951056
-0.587786 -0.809017 0 -0.4525918 -0.8882657 -0.07838817 -0.587786 -0.809017
-0.687159 -0.681715 0.251152 -0.5638369 -0.7487668 0.3484769 -0.687159 -0.681715
-0.447216 -0.850648 0.276397 -0.5638369 -0.7487668 0.3484769 -0.447216 -0.850648
-0.531941 -0.681712 0.502302 -0.5638369 -0.7487668 0.3484769 -0.531941 -0.681712
-0.447216 -0.850648 0.276397 -0.4150852 -0.7963784 0.4398702 -0.447216 -0.850648
-0.262869 -0.809012 0.525738 -0.4150852 -0.7963784 0.4398702 -0.262869 -0.809012
-0.531941 -0.681712 0.502302 -0.4150852 -0.7963784 0.4398702 -0.531941 -0.681712
-0.587786 -0.809017 0 -0.451881 -0.8868721 0.09623671 -0.587786 -0.809017
-0.309017 -0.951056 -1e-06 -0.451881 -0.8868721 0.09623671 -0.309017 -0.951056
-0.447216 -0.850648 0.276397 -0.451881 -0.8868721 0.09623671 -0.447216 -0.850648
-0.309017 -0.951056 -1e-06 -0.303535 -0.9341711 0.187592 -0.309017 -0.951056
-0.138199 -0.951055 0.276397 -0.303535 -0.9341711 0.187592 -0.138199 -0.951055
-0.447216 -0.850648 0.276397 -0.303535 -0.9341711 0.187592 -0.447216 -0.850648
-0.447216 -0.850648 0.276397 -0.2881649 -0.8868687 0.3611439 -0.447216 -0.850648
-0.138199 -0.951055 0.276397 -0.2881649 -0.8868687 0.3611439 -0.138199 -0.951055
-0.262869 -0.809012 0.525738 -0.2881649 -0.8868687 0.3611439 -0.262869 -0.809012
-0.138199 -0.951055 0.276397 -0.132299 -0.8882627 0.4398709 -0.138199 -0.951055
0.029639 -0.864184 0.502302 -0.132299 -0.8882627 0.4398709 0.029639 -0.864184
-0.262869 -0.809012 0.525738 -0.132299 -0.8882627 0.4398709 -0.262869 -0.809012
-0.436007 -0.864188 -0.251152 -0.304506 -0.9371839 -0.170184 -0.436007 -0.864188
-0.155215 -0.955422 -0.251152 -0.304506 -0.9371839 -0.170184 -0.155215 -0.955422
-0.309017 -0.951056 -1e-06 -0.304506 -0.9371839 -0.170184 -0.309017 -0.951056
-0.155215 -0.955422 -0.251152 -0.155954 -0.984649 -0.0783877 -0.155215 -0.955422
0 -1 -0 -0.155954 -0.984649 -0.0783877 0.000000 -1.000000
-0.309017 -0.951056 -1e-06 -0.155954 -0.984649 -0.0783877 -0.309017 -0.951056
-0.309017 -0.951056 -1e-06 -0.15571 -0.9831039 0.09623478 -0.309017 -0.951056
0 -1 -0 -0.15571 -0.9831039 0.09623478 0.000000 -1.000000
-0.138199 -0.951055 0.276397 -0.15571 -0.9831039 0.09623478 -0.138199 -0.951055
0 -1 -0 0.000362746 -0.9846491 0.174545 0.000000 -1.000000
0.155215 -0.955422 0.251152 0.000362746 -0.9846491 0.174545 0.155215 -0.955422
-0.138199 -0.951055 0.276397 0.000362746 -0.9846491 0.174545 -0.138199 -0.951055
-0.138199 -0.951055 0.276397 0.0160341 -0.9371802 0.3484771 -0.138199 -0.951055
0.155215 -0.955422 0.251152 0.0160341 -0.9371802 0.3484771 0.155215 -0.955422
0.029639 -0.864184 0.502302 0.0160341 -0.9371802 0.3484771 0.029639 -0.864184
0.155215 -0.955422 0.251152 0.138726 -0.9065327 0.3986898 0.155215 -0.955422
0.276388 -0.850649 0.44722 0.138726 -0.9065327 0.3986898 0.276388 -0.850649
0.029639 -0.864184 0.502302 0.138726 -0.9065327 0.3986898 0.029639 -0.864184
0.436007 -0.864188 0.251152 0.420606 -0.814946 0.39869 0.436007 -0.864188
0.483971 -0.716565 0.502302 0.420606 -0.814946 0.39869 0.483971 -0.716565
0.276388 -0.850649 0.44722 0.420606 -0.814946 0.39869 0.276388 -0.850649
0.587786 -0.809017 0 0.5784657 -0.7968127 0.1745479 0.587786 -0.809017
0.67082 -0.68819 0.276396 0.5784657 -0.7968127 0.1745479 0.670820 -0.688190
0.436007 -0.864188 0.251152 0.5784657 -0.7968127 0.1745479 0.436007 -0.864188
0.687159 -0.681715 -0.251152 0.7049319 -0.7049299 -0.07838969 0.687159 -0.681715
0.809019 -0.587783 -2e-06 0.7049319 -0.7049299 -0.07838969 0.809019 -0.587783
0.587786 -0.809017 0 0.7049319 -0.7049299 -0.07838969 0.587786 -0.809017
0.436007 -0.864188 0.251152 0.5378881 -0.7676212 0.3484741 0.436007 -0.864188
0.67082 -0.68819 0.276396 0.5378881 -0.7676212 0.3484741 0.670820 -0.688190
0.483971 -0.716565 0.502302 0.5378881 -0.7676212 0.3484741 0.483971 -0.716565
0.67082 -0.68819 0.276396 0.629138 -0.640858 0.439871 0.670820 -0.688190
0.688189 -0.499997 0.525736 0.629138 -0.640858 0.439871 0.688189 -0.499997
0.483971 -0.716565 0.502302 0.629138 -0.640858 0.439871 0.483971 -0.716565
0.587786 -0.809017 0 0.7038268 -0.7038228 0.09623608 0.587786 -0.809017
0.809019 -0.587783 -2e-06 0.7038268 -0.7038228 0.09623608 0.809019 -0.587783
0.67082 -0.68819 0.276396 0.7038268 -0.7038228 0.09623608 0.670820 -0.688190
0.809019 -0.587783 -2e-06 0.794655 -0.577349 0.187594 0.809019 -0.587783
0.861804 -0.425323 0.276394 0.794655 -0.577349 0.187594 0.861804 -0.425323
0.67082 -0.68819 0.276396 0.794655 -0.577349 0.187594 0.670820 -0.688190
0.67082 -0.68819 0.276396 0.7544178 -0.5481139 0.3611439 0.670820 -0.688190
0.861804 -0.425323 0.276394 0.7544178 -0.5481139 0.3611439 0.861804 -0.425323
0.688189 -0.499997 0.525736 0.7544178 -0.5481139 0.3611439 0.688189 -0.499997
0.861804 -0.425323 0.276394 0.803908 -0.40031 0.439868 0.861804 -0.425323
0.831051 -0.238853 0.502299 0.803908 -0.40031 0.439868 0.831051 -0.238853
0.688189 -0.499997 0.525736 0.803908 -0.40031 0.439868 0.688189 -0.499997
0.687159 -0.681715 -0.251152 0.7972164 -0.5792083 -0.1701881 0.687159 -0.681715
0.860698 -0.442858 -0.251151 0.7972164 -0.5792083 -0.1701881 0.860698 -0.442858
0.809019 -0.587783 -2e-06 0.7972164 -0.5792083 -0.1701881 0.809019 -0.587783
0.860698 -0.442858 -0.251151 0.8882672 -0.4525891 -0.07838693 0.860698 -0.442858
0.951058 -0.309013 -0 0.8882672 -0.4525891 -0.07838693 0.951058 -0.309013
0.809019 -0.587783 -2e-06 0.8882672 -0.4525891 -0.07838693 0.809019 -0.587783
0.809019 -0.587783 -2e-06 0.8868729 -0.4518799 0.09623469 0.809019 -0.587783
0.951058 -0.309013 -0 0.8868729 -0.4518799 0.09623469 0.951058 -0.309013
0.861804 -0.425323 0.276394 0.8868729 -0.4518799 0.09623469 0.861804 -0.425323
0.951058 -0.309013 -0 0.9365706 -0.3039238 0.1745449 0.951058 -0.309013
0.956626 -0.147618 0.251149 0.9365706 -0.3039238 0.1745449 0.956626 -0.147618
0.861804 -0.425323 0.276394 0.9365706 -0.3039238 0.1745449 0.861804 -0.425323
0.861804 -0.425323 0.276394 0.8962696 -0.2743519 0.3484708 0.861804 -0.425323
0.956626 -0.147618 0.251149 0.8962696 -0.2743519 0.3484708 0.956626 -0.147618
0.831051 -0.238853 0.502299 0.8962696 -0.2743519 0.3484708 0.831051 -0.238853
0.956626 -0.147618 0.251149 0.9050357 -0.148191 0.3986849 0.956626 -0.147618
0.894426 0 0.447216 0.9050357 -0.148191 0.3986849 0.894426 0.000000
0.831051 -0.238853 0.502299 0.9050357 -0.148191 0.3986849 0.831051 -0.238853
0.436007 0.864188 0.251152 0.294548 0.9065329 0.30239 0.436007 0.864188
0.155215 0.955422 0.251152 0.294548 0.9065329 0.30239 0.155215 0.955422
0.276388 0.850649 0.44722 0.294548 0.9065329 0.30239 0.276388 0.850649
0.587786 0.809017 -0 0.452591 0.8882661 0.07838811 0.587786 0.809017
0.309017 0.951056 -0 0.452591 0.8882661 0.07838811 0.309017 0.951056
0.436007 0.864188 0.251152 0.452591 0.8882661 0.07838811 0.436007 0.864188
0.687159 0.681715 -0.251152 0.5790607 0.7963806 -0.1745469 0.687159 0.681715
0.447216 0.850648 -0.276398 0.5790607 0.7963806 -0.1745469 0.447216 0.850648
0.587786 0.809017 -0 0.5790607 0.7963806 -0.1745469 0.587786 0.809017
0.436007 0.864188 0.251152 0.3045069 0.9371836 0.1701839 0.436007 0.864188
0.309017 0.951056 -0 0.3045069 0.9371836 0.1701839 0.309017 0.951056
0.155215 0.955422 0.251152 0.3045069 0.9371836 0.1701839 0.155215 0.955422
0.309017 0.951056 -0 0.155955 0.9846489 0.07838749 0.309017 0.951056
0 1 0 0.155955 0.9846489 0.07838749 0.000000 1.000000
0.155215 0.955422 0.251152 0.155955 0.9846489 0.07838749 0.155215 0.955422
0.587786 0.809017 -0 0.451881 0.8868721 -0.0962365 0.587786 0.809017
0.447216 0.850648 -0.276398 0.451881 0.8868721 -0.0962365 0.447216 0.850648
0.309017 0.951056 -0 0.451881 0.8868721 -0.0962365 0.309017 0.951056
0.447216 0.850648 -0.276398 0.303535 0.9341711 -0.187592 0.447216 0.850648
0.138199 0.951055 -0.276398 0.303535 0.9341711 -0.187592 0.138199 0.951055
0.309017 0.951056 -0 0.303535 0.9341711 -0.187592 0.309017 0.951056
0.309017 0.951056 -0 0.15571 0.983104 -0.0962346 0.309017 0.951056
0.138199 0.951055 -0.276398 0.15571 0.983104 -0.0962346 0.138199 0.951055
0 1 0 0.15571 0.983104 -0.0962346 0.000000 1.000000
0.138199 0.951055 -0.276398 -0.000363321 0.9846491 -0.174545 0.138199 0.951055
-0.155215 0.955422 -0.251152 -0.000363321 0.9846491 -0.174545 -0.155215 0.955422
0 1 0 -0.000363321 0.9846491 -0.174545 0.000000 1.000000
0.687159 0.681715 -0.251152 0.563838 0.748766 -0.348477 0.687159 0.681715
0.531941 0.681712 -0.502302 0.563838 0.748766 -0.348477 0.531941 0.681712
0.447216 0.850648 -0.276398 0.563838 0.748766 -0.348477 0.447216 0.850648
0.531941 0.681712 -0.502302 0.4150848 0.7963777 -0.4398718 0.531941 0.681712
0.262869 0.809012 -0.525738 0.4150848 0.7963777 -0.4398718 0.262869 0.809012
0.447216 0.850648 -0.276398 0.4150848 0.7963777 -0.4398718 0.447216 0.850648
0.447216 0.850648 -0.276398 0.2881651 0.8868682 -0.3611451 0.447216 0.850648
0.262869 0.809012 -0.525738 0.2881651 0.8868682 -0.3611451 0.262869 0.809012
0.138199 0.951055 -0.276398 0.2881651 0.8868682 -0.3611451 0.138199 0.951055
0.262869 0.809012 -0.525738 0.132298 0.8882622 -0.4398721 0.262869 0.809012
-0.029639 0.864184 -0.502302 0.132298 0.8882622 -0.4398721 -0.029639 0.864184
0.138199 0.951055 -0.276398 0.132298 0.8882622 -0.4398721 0.138199 0.951055
0.138199 0.951055 -0.276398 -0.0160353 0.9371802 -0.3484771 0.138199 0.951055
-0.029639 0.864184 -0.502302 -0.0160353 0.9371802 -0.3484771 -0.029639 0.864184
-0.155215 0.955422 -0.251152 -0.0160353 0.9371802 -0.3484771 -0.155215 0.955422
-0.029639 0.864184 -0.502302 -0.138726 0.9065327 -0.3986898 -0.029639 0.864184
-0.276388 0.850649 -0.44722 -0.138726 0.9065327 -0.3986898 -0.276388 0.850649
-0.155215 0.955422 -0.251152 -0.138726 0.9065327 -0.3986898 -0.155215 0.955422
-0.687159 0.681715 0.251152 -0.7711439 0.5602649 0.302391 -0.687159 0.681715
-0.860698 0.442858 0.251151 -0.7711439 0.5602649 0.302391 -0.860698 0.442858
-0.723607 0.525725 0.44722 -0.7711439 0.5602649 0.302391 -0.723607 0.525725
-0.587786 0.809017 -0 -0.704934 0.704928 0.0783879 -0.587786 0.809017
-0.809018 0.587783 -0 -0.704934 0.704928 0.0783879 -0.809018 0.587783
-0.687159 0.681715 0.251152 -0.704934 0.704928 0.0783879 -0.687159 0.681715
-0.436007 0.864188 -0.251152 -0.5784647 0.7968137 -0.1745469 -0.436007 0.864188
-0.670819 0.688191 -0.276397 -0.5784647 0.7968137 -0.1745469 -0.670819 0.688191
-0.587786 0.809017 -0 -0.5784647 0.7968137 -0.1745469 -0.587786 0.809017
-0.687159 0.681715 0.251152 -0.7972169 0.579209 0.170183 -0.687159 0.681715
-0.809018 0.587783 -0 -0.7972169 0.579209 0.170183 -0.809018 0.587783
-0.860698 0.442858 0.251151 -0.7972169 0.579209 0.170183 -0.860698 0.442858
-0.809018 0.587783 -0 -0.8882655 0.4525927 0.07838476 -0.809018 0.587783
-0.951058 0.309013 0 -0.8882655 0.4525927 0.07838476 -0.951058 0.309013
-0.860698 0.442858 0.251151 -0.8882655 0.4525927 0.07838476 -0.860698 0.442858
-0.587786 0.809017 -0 -0.7038279 0.703822 -0.09623478 -0.587786 0.809017
-0.670819 0.688191 -0.276397 -0.7038279 0.703822 -0.09623478 -0.670819 0.688191
-0.809018 0.587783 -0 -0.7038279 0.703822 -0.09623478 -0.809018 0.587783
-0.670819 0.688191 -0.276397 -0.7946549 0.57735 -0.187592 -0.670819 0.688191
-0.861803 0.425324 -0.276396 -0.7946549 0.57735 -0.187592 -0.861803 0.425324
-0.809018 0.587783 -0 -0.7946549 0.57735 -0.187592 -0.809018 0.587783
-0.809018 0.587783 -0 -0.8868719 0.4518819 -0.09623449 -0.809018 0.587783
-0.861803 0.425324 -0.276396 -0.8868719 0.4518819 -0.09623449 -0.861803 0.425324
-0.951058 0.309013 0 -0.8868719 0.4518819 -0.09623449 -0.951058 0.309013
-0.861803 0.425324 -0.276396 -0.9365703 0.3039241 -0.174546 -0.861803 0.425324
-0.956626 0.147618 -0.251149 -0.9365703 0.3039241 -0.174546 -0.956626 0.147618
-0.951058 0.309013 0 -0.9365703 0.3039241 -0.174546 -0.951058 0.309013
-0.436007 0.864188 -0.251152 -0.5378861 0.7676221 -0.3484751 -0.436007 0.864188
-0.483971 0.716565 -0.502302 -0.5378861 0.7676221 -0.3484751 -0.483971 0.716565
-0.670819 0.688191 -0.276397 -0.5378861 0.7676221 -0.3484751 -0.670819 0.688191
-0.483971 0.716565 -0.502302 -0.6291378 0.6408568 -0.4398729 -0.483971 0.716565
-0.688189 0.499997 -0.525736 -0.6291378 0.6408568 -0.4398729 -0.688189 0.499997
-0.670819 0.688191 -0.276397 -0.6291378 0.6408568 -0.4398729 -0.670819 0.688191
-0.670819 0.688191 -0.276397 -0.7544171 0.5481141 -0.361145 -0.670819 0.688191
-0.688189 0.499997 -0.525736 -0.7544171 0.5481141 -0.361145 -0.688189 0.499997
-0.861803 0.425324 -0.276396 -0.7544171 0.5481141 -0.361145 -0.861803 0.425324
-0.688189 0.499997 -0.525736 -0.803907 0.40031 -0.43987 -0.688189 0.499997
-0.831051 0.238853 -0.502299 -0.803907 0.40031 -0.43987 -0.831051 0.238853
-0.861803 0.425324 -0.276396 -0.803907 0.40031 -0.43987 -0.861803 0.425324
-0.861803 0.425324 -0.276396 -0.8962694 0.2743521 -0.3484711 -0.861803 0.425324
-0.831051 0.238853 -0.502299 -0.8962694 0.2743521 -0.3484711 -0.831051 0.238853
-0.956626 0.147618 -0.251149 -0.8962694 0.2743521 -0.3484711 -0.956626 0.147618
-0.831051 0.238853 -0.502299 -0.9050357 0.148191 -0.3986849 -0.831051 0.238853
-0.894426 0 -0.447216 -0.9050357 0.148191 -0.3986849 -0.894426 0.000000
-0.956626 0.147618 -0.251149 -0.9050357 0.148191 -0.3986849 -0.956626 0.147618
-0.860698 -0.442858 0.251151 -0.7711439 -0.5602649 0.302391 -0.860698 -0.442858
-0.687159 -0.681715 0.251152 -0.7711439 -0.5602649 0.302391 -0.687159 -0.681715
-0.723607 -0.525725 0.44722 -0.7711439 -0.5602649 0.302391 -0.723607 -0.525725
-0.951058 -0.309013 -0 -0.8882655 -0.4525927 0.07838476 -0.951058 -0.309013
-0.809018 -0.587783 0 -0.8882655 -0.4525927 0.07838476 -0.809018 -0.587783
-0.860698 -0.442858 0.251151 -0.8882655 -0.4525927 0.07838476 -0.860698 -0.442858
-0.956626 -0.147618 -0.251149 -0.9365703 -0.3039241 -0.174546 -0.956626 -0.147618
-0.861803 -0.425324 -0.276396 -0.9365703 -0.3039241 -0.174546 -0.861803 -0.425324
-0.951058 -0.309013 -0 -0.9365703 -0.3039241 -0.174546 -0.951058 -0.309013
-0.860698 -0.442858 0.251151 -0.7972169 -0.579209 0.170183 -0.860698 -0.442858
-0.809018 -0.587783 0 -0.7972169 -0.579209 0.170183 -0.809018 -0.587783
-0.687159 -0.681715 0.251152 -0.7972169 -0.579209 0.170183 -0.687159 -0.681715
-0.809018 -0.587783 0 -0.704934 -0.704928 0.0783879 -0.809018 -0.587783
-0.587786 -0.809017 0 -0.704934 -0.704928 0.0783879 -0.587786 -0.809017
-0.687159 -0.681715 0.251152 -0.704934 -0.704928 0.0783879 -0.687159 -0.681715
-0.951058 -0.309013 -0 -0.8868719 -0.4518819 -0.09623449 -0.951058 -0.309013
-0.861803 -0.425324 -0.276396 -0.8868719 -0.4518819 -0.09623449 -0.861803 -0.425324
-0.809018 -0.587783 0 -0.8868719 -0.4518819 -0.09623449 -0.809018 -0.587783
-0.861803 -0.425324 -0.276396 -0.7946549 -0.57735 -0.187592 -0.861803 -0.425324
-0.670819 -0.688191 -0.276397 -0.7946549 -0.57735 -0.187592 -0.670819 -0.688191
-0.809018 -0.587783 0 -0.7946549 -0.57735 -0.187592 -0.809018 -0.587783
-0.809018 -0.587783 0 -0.7038279 -0.703822 -0.09623478 -0.809018 -0.587783
-0.670819 -0.688191 -0.276397 -0.7038279 -0.703822 -0.09623478 -0.670819 -0.688191
-0.587786 -0.809017 0 -0.7038279 -0.703822 -0.09623478 -0.587786 -0.809017
-0.670819 -0.688191 -0.276397 -0.5784647 -0.7968137 -0.1745469 -0.670819 -0.688191
-0.436007 -0.864188 -0.251152 -0.5784647 -0.7968137 -0.1745469 -0.436007 -0.864188
-0.587786 -0.809017 0 -0.5784647 -0.7968137 -0.1745469 -0.587786 -0.809017
-0.956626 -0.147618 -0.251149 -0.8962694 -0.2743521 -0.3484711 -0.956626 -0.147618
-0.831051 -0.238853 -0.502299 -0.8962694 -0.2743521 -0.3484711 -0.831051 -0.238853
-0.861803 -0.425324 -0.276396 -0.8962694 -0.2743521 -0.3484711 -0.861803 -0.425324
-0.831051 -0.238853 -0.502299 -0.803907 -0.40031 -0.43987 -0.831051 -0.238853
-0.688189 -0.499997 -0.525736 -0.803907 -0.40031 -0.43987 -0.688189 -0.499997
-0.861803 -0.425324 -0.276396 -0.803907 -0.40031 -0.43987 -0.861803 -0.425324
-0.861803 -0.425324 -0.276396 -0.7544171 -0.5481141 -0.361145 -0.861803 -0.425324
-0.688189 -0.499997 -0.525736 -0.7544171 -0.5481141 -0.361145 -0.688189 -0.499997
-0.670819 -0.688191 -0.276397 -0.7544171 -0.5481141 -0.361145 -0.670819 -0.688191
-0.688189 -0.499997 -0.525736 -0.6291378 -0.6408568 -0.4398729 -0.688189 -0.499997
-0.483971 -0.716565 -0.502302 -0.6291378 -0.6408568 -0.4398729 -0.483971 -0.716565
-0.670819 -0.688191 -0.276397 -0.6291378 -0.6408568 -0.4398729 -0.670819 -0.688191
-0.670819 -0.688191 -0.276397 -0.5378861 -0.7676221 -0.3484751 -0.670819 -0.688191
-0.483971 -0.716565 -0.502302 -0.5378861 -0.7676221 -0.3484751 -0.483971 -0.716565
-0.436007 -0.864188 -0.251152 -0.5378861 -0.7676221 -0.3484751 -0.436007 -0.864188
-0.483971 -0.716565 -0.502302 -0.420606 -0.814946 -0.39869 -0.483971 -0.716565
-0.276388 -0.850649 -0.44722 -0.420606 -0.814946 -0.39869 -0.276388 -0.850649
-0.436007 -0.864188 -0.251152 -0.420606 -0.814946 -0.39869 -0.436007 -0.864188
0.155215 -0.955422 0.251152 0.294548 -0.9065329 0.30239 0.155215 -0.955422
0.436007 -0.864188 0.251152 0.294548 -0.9065329 0.30239 0.436007 -0.864188
0.276388 -0.850649 0.44722 0.294548 -0.9065329 0.30239 0.276388 -0.850649
0 -1 -0 0.155955 -0.9846489 0.07838749 0.000000 -1.000000
0.309017 -0.951056 0 0.155955 -0.9846489 0.07838749 0.309017 -0.951056
0.155215 -0.955422 0.251152 0.155955 -0.9846489 0.07838749 0.155215 -0.955422
-0.155215 -0.955422 -0.251152 -0.000363323 -0.9846491 -0.174545 -0.155215 -0.955422
0.138199 -0.951055 -0.276398 -0.000363323 -0.9846491 -0.174545 0.138199 -0.951055
0 -1 -0 -0.000363323 -0.9846491 -0.174545 0.000000 -1.000000
0.155215 -0.955422 0.251152 0.3045069 -0.9371836 0.1701839 0.155215 -0.955422
0.309017 -0.951056 0 0.3045069 -0.9371836 0.1701839 0.309017 -0.951056
0.436007 -0.864188 0.251152 0.3045069 -0.9371836 0.1701839 0.436007 -0.864188
0.309017 -0.951056 0 0.452591 -0.8882661 0.07838811 0.309017 -0.951056
0.587786 -0.809017 0 0.452591 -0.8882661 0.07838811 0.587786 -0.809017
0.436007 -0.864188 0.251152 0.452591 -0.8882661 0.07838811 0.436007 -0.864188
0 -1 -0 0.15571 -0.983104 -0.0962346 0.000000 -1.000000
0.138199 -0.951055 -0.276398 0.15571 -0.983104 -0.0962346 0.138199 -0.951055
0.309017 -0.951056 0 0.15571 -0.983104 -0.0962346 0.309017 -0.951056
0.138199 -0.951055 -0.276398 0.303535 -0.9341711 -0.187592 0.138199 -0.951055
0.447216 -0.850648 -0.276398 0.303535 -0.9341711 -0.187592 0.447216 -0.850648
0.309017 -0.951056 0 0.303535 -0.9341711 -0.187592 0.309017 -0.951056
0.309017 -0.951056 0 0.451881 -0.8868721 -0.0962365 0.309017 -0.951056
0.447216 -0.850648 -0.276398 0.451881 -0.8868721 -0.0962365 0.447216 -0.850648
0.587786 -0.809017 0 0.451881 -0.8868721 -0.0962365 0.587786 -0.809017
0.447216 -0.850648 -0.276398 0.5790607 -0.7963806 -0.1745469 0.447216 -0.850648
0.687159 -0.681715 -0.251152 0.5790607 -0.7963806 -0.1745469 0.687159 -0.681715
0.587786 -0.809017 0 0.5790607 -0.7963806 -0.1745469 0.587786 -0.809017
-0.155215 -0.955422 -0.251152 -0.0160353 -0.9371802 -0.3484771 -0.155215 -0.955422
-0.029639 -0.864184 -0.502302 -0.0160353 -0.9371802 -0.3484771 -0.029639 -0.864184
0.138199 -0.951055 -0.276398 -0.0160353 -0.9371802 -0.3484771 0.138199 -0.951055
-0.029639 -0.864184 -0.502302 0.132299 -0.8882621 -0.4398721 -0.029639 -0.864184
0.262869 -0.809012 -0.525738 0.132299 -0.8882621 -0.4398721 0.262869 -0.809012
0.138199 -0.951055 -0.276398 0.132299 -0.8882621 -0.4398721 0.138199 -0.951055
0.138199 -0.951055 -0.276398 0.2881651 -0.8868682 -0.3611451 0.138199 -0.951055
0.262869 -0.809012 -0.525738 0.2881651 -0.8868682 -0.3611451 0.262869 -0.809012
0.447216 -0.850648 -0.276398 0.2881651 -0.8868682 -0.3611451 0.447216 -0.850648
0.262869 -0.809012 -0.525738 0.4150848 -0.7963777 -0.4398718 0.262869 -0.809012
0.531941 -0.681712 -0.502302 0.4150848 -0.7963777 -0.4398718 0.531941 -0.681712
0.447216 -0.850648 -0.276398 0.4150848 -0.7963777 -0.4398718 0.447216 -0.850648
0.447216 -0.850648 -0.276398 0.563838 -0.748766 -0.348477 0.447216 -0.850648
0.531941 -0.681712 -0.502302 0.563838 -0.748766 -0.348477 0.531941 -0.681712
0.687159 -0.681715 -0.251152 0.563838 -0.748766 -0.348477 0.687159 -0.681715
0.531941 -0.681712 -0.502302 0.6450858 -0.6518518 -0.3986898 0.531941 -0.681712
0.723607 -0.525725 -0.44722 0.6450858 -0.6518518 -0.3986898 0.723607 -0.525725
0.687159 -0.681715 -0.251152 0.6450858 -0.6518518 -0.3986898 0.687159 -0.681715
0.956626 -0.147618 0.251149 0.9531853 0 0.3023871 0.956626 -0.147618
0.956626 0.147618 0.251149 0.9531853 0 0.3023871 0.956626 0.147618
0.894426 0 0.447216 0.9531853 0 0.3023871 0.894426 0.000000
0.951058 -0.309013 -0 0.9846495 -0.1559509 0.07838807 0.951058 -0.309013
1 0 0 0.9846495 -0.1559509 0.07838807 1.000000 0.000000
0.956626 -0.147618 0.251149 0.9846495 -0.1559509 0.07838807 0.956626 -0.147618
0.860698 -0.442858 -0.251151 0.9363459 -0.304616 -0.174544 0.860698 -0.442858
0.947213 -0.162458 -0.276396 0.9363459 -0.304616 -0.174544 0.947213 -0.162458
0.951058 -0.309013 -0 0.9363459 -0.304616 -0.174544 0.951058 -0.309013
0.956626 -0.147618 0.251149 0.9854125 0 0.1701831 0.956626 -0.147618
1 0 0 0.9854125 0 0.1701831 1.000000 0.000000
0.956626 0.147618 0.251149 0.9854125 0 0.1701831 0.956626 0.147618
1 0 0 0.9846495 0.1559509 0.07838807 1.000000 0.000000
0.951058 0.309013 0 0.9846495 0.1559509 0.07838807 0.951058 0.309013
0.956626 0.147618 0.251149 0.9846495 0.1559509 0.07838807 0.956626 0.147618
0.951058 -0.309013 -0 0.9831043 -0.1557061 -0.09623684 0.951058 -0.309013
0.947213 -0.162458 -0.276396 0.9831043 -0.1557061 -0.09623684 0.947213 -0.162458
1 0 0 0.9831043 -0.1557061 -0.09623684 1.000000 0.000000
0.947213 -0.162458 -0.276396 0.9822469 0 -0.187593 0.947213 -0.162458
0.947213 0.162458 -0.276396 0.9822469 0 -0.187593 0.947213 0.162458
1 0 0 0.9822469 0 -0.187593 1.000000 0.000000
1 0 0 0.9831043 0.1557061 -0.09623684 1.000000 0.000000
0.947213 0.162458 -0.276396 0.9831043 0.1557061 -0.09623684 0.947213 0.162458
0.951058 0.309013 0 0.9831043 0.1557061 -0.09623684 0.951058 0.309013
0.947213 0.162458 -0.276396 0.9363459 0.304616 -0.174544 0.947213 0.162458
0.860698 0.442858 -0.251151 0.9363459 0.304616 -0.174544 0.860698 0.442858
0.951058 0.309013 0 0.9363459 0.304616 -0.174544 0.951058 0.309013
0.860698 -0.442858 -0.251151 0.8863572 -0.3048521 -0.3484771 0.860698 -0.442858
0.812729 -0.295238 -0.502301 0.8863572 -0.3048521 -0.3484771 0.812729 -0.295238
0.947213 -0.162458 -0.276396 0.8863572 -0.3048521 -0.3484771 0.947213 -0.162458
0.812729 -0.295238 -0.502301 0.8856711 -0.148667 -0.439869 0.812729 -0.295238
0.850648 0 -0.525736 0.8856711 -0.148667 -0.439869 0.850648 0.000000
0.947213 -0.162458 -0.276396 0.8856711 -0.148667 -0.439869 0.947213 -0.162458
0.947213 -0.162458 -0.276396 0.9325097 0 -0.3611449 0.947213 -0.162458
0.850648 0 -0.525736 0.9325097 0 -0.3611449 0.850648 0.000000
0.947213 0.162458 -0.276396 0.9325097 0 -0.3611449 0.947213 0.162458
0.850648 0 -0.525736 0.8856711 0.148667 -0.439869 0.850648 0.000000
0.812729 0.295238 -0.502301 0.8856711 0.148667 -0.439869 0.812729 0.295238
0.947213 0.162458 -0.276396 0.8856711 0.148667 -0.439869 0.947213 0.162458
0.947213 0.162458 -0.276396 0.8863572 0.3048521 -0.3484771 0.947213 0.162458
0.812729 0.295238 -0.502301 0.8863572 0.3048521 -0.3484771 0.812729 0.295238
0.860698 0.442858 -0.251151 0.8863572 0.3048521 -0.3484771 0.860698 0.442858
0.812729 0.295238 -0.502301 0.8192945 0.4120722 -0.3986892 0.812729 0.295238
0.723607 0.525725 -0.44722 0.8192945 0.4120722 -0.3986892 0.723607 0.525725
0.860698 0.442858 -0.251151 0.8192945 0.4120722 -0.3986892 0.860698 0.442858
0.609547 0.442856 -0.657519 0.615326 0.560263 -0.554508 0.609547 0.442856
0.531941 0.681712 -0.502302 0.615326 0.560263 -0.554508 0.531941 0.681712
0.723607 0.525725 -0.44722 0.615326 0.560263 -0.554508 0.723607 0.525725
0.425323 0.309011 -0.850654 0.467353 0.452587 -0.759438 0.425323 0.309011
0.361803 0.587779 -0.723612 0.467353 0.452587 -0.759438 0.361803 0.587779
0.609547 0.442856 -0.657519 0.467353 0.452587 -0.759438 0.609547 0.442856
0.203181 0.147618 -0.96795 0.2627291 0.3039231 -0.9157533 0.203181 0.147618
0.138197 0.425321 -0.894429 0.2627291 0.3039231 -0.9157533 0.138197 0.425321
0.425323 0.309011 -0.850654 0.2627291 0.3039231 -0.9157533 0.425323 0.309011
0.609547 0.442856 -0.657519 0.5087429 0.5792049 -0.6369478 0.609547 0.442856
0.361803 0.587779 -0.723612 0.5087429 0.5792049 -0.6369478 0.361803 0.587779
0.531941 0.681712 -0.502302 0.5087429 0.5792049 -0.6369478 0.531941 0.681712
0.361803 0.587779 -0.723612 0.3853691 0.7049232 -0.5954611 0.361803 0.587779
0.262869 0.809012 -0.525738 0.3853691 0.7049232 -0.5954611 0.262869 0.809012
0.531941 0.681712 -0.502302 0.3853691 0.7049232 -0.5954611 0.531941 0.681712
0.425323 0.309011 -0.850654 0.310547 0.4518771 -0.8362821 0.425323 0.309011
0.138197 0.425321 -0.894429 0.310547 0.4518771 -0.8362821 0.138197 0.425321
0.361803 0.587779 -0.723612 0.310547 0.4518771 -0.8362821 0.361803 0.587779
0.138197 0.425321 -0.894429 0.1875921 0.5773452 -0.7946582 0.138197 0.425321
0.052789 0.688186 -0.723611 0.1875921 0.5773452 -0.7946582 0.052789 0.688186
0.361803 0.587779 -0.723612 0.1875921 0.5773452 -0.7946582 0.361803 0.587779
0.361803 0.587779 -0.723612 0.228687 0.7038181 -0.6725641 0.361803 0.587779
0.052789 0.688186 -0.723611 0.228687 0.7038181 -0.6725641 0.052789 0.688186
0.262869 0.809012 -0.525738 0.228687 0.7038181 -0.6725641 0.262869 0.809012
0.052789 0.688186 -0.723611 0.102583 0.796808 -0.595461 0.052789 0.688186
-0.029639 0.864184 -0.502302 0.102583 0.796808 -0.595461 -0.029639 0.864184
0.262869 0.809012 -0.525738 0.102583 0.796808 -0.595461 0.262869 0.809012
0.203181 0.147618 -0.96795 0.08914377 0.2743519 -0.9574887 0.203181 0.147618
-0.077607 0.238853 -0.96795 0.08914377 0.2743519 -0.9574887 -0.077607 0.238853
0.138197 0.425321 -0.894429 0.08914377 0.2743519 -0.9574887 0.138197 0.425321
-0.077607 0.238853 -0.96795 -0.0339081 0.4003081 -0.9157531 -0.077607 0.238853
-0.162456 0.499995 -0.850654 -0.0339081 0.4003081 -0.9157531 -0.162456 0.499995
0.138197 0.425321 -0.894429 -0.0339081 0.4003081 -0.9157531 0.138197 0.425321
0.138197 0.425321 -0.894429 0.01437371 0.5481122 -0.8362813 0.138197 0.425321
-0.162456 0.499995 -0.850654 0.01437371 0.5481122 -0.8362813 -0.162456 0.499995
0.052789 0.688186 -0.723611 0.01437371 0.5481122 -0.8362813 0.052789 0.688186
-0.162456 0.499995 -0.850654 -0.112066 0.6408539 -0.7594389 -0.162456 0.499995
-0.232822 0.716563 -0.657519 -0.112066 0.6408539 -0.7594389 -0.232822 0.716563
0.052789 0.688186 -0.723611 -0.112066 0.6408539 -0.7594389 0.052789 0.688186
0.052789 0.688186 -0.723611 -0.07112619 0.7676188 -0.6369478 0.052789 0.688186
-0.232822 0.716563 -0.657519 -0.07112619 0.7676188 -0.6369478 -0.232822 0.716563
-0.029639 0.864184 -0.502302 -0.07112619 0.7676188 -0.6369478 -0.029639 0.864184
-0.232822 0.716563 -0.657519 -0.168486 0.8149431 -0.554509 -0.232822 0.716563
-0.276388 0.850649 -0.44722 -0.168486 0.8149431 -0.554509 -0.276388 0.850649
-0.029639 0.864184 -0.502302 -0.168486 0.8149431 -0.554509 -0.029639 0.864184
-0.232822 0.716563 -0.657519 -0.342696 0.7583399 -0.5545089 -0.232822 0.716563
-0.483971 0.716565 -0.502302 -0.342696 0.7583399 -0.5545089 -0.483971 0.716565
-0.276388 0.850649 -0.44722 -0.342696 0.7583399 -0.5545089 -0.276388 0.850649
-0.162456 0.499995 -0.850654 -0.2860158 0.5843356 -0.7594385 -0.162456 0.499995
-0.447211 0.525727 -0.723612 -0.2860158 0.5843356 -0.7594385 -0.447211 0.525727
-0.232822 0.716563 -0.657519 -0.2860158 0.5843356 -0.7594385 -0.232822 0.716563
-0.077607 0.238853 -0.96795 -0.20786 0.3437881 -0.9157532 -0.077607 0.238853
-0.361801 0.262863 -0.894429 -0.20786 0.3437881 -0.9157532 -0.361801 0.262863
-0.162456 0.499995 -0.850654 -0.20786 0.3437881 -0.9157532 -0.162456 0.499995
-0.232822 0.716563 -0.657519 -0.3936461 0.6628272 -0.6369482 -0.232822 0.716563
-0.447211 0.525727 -0.723612 -0.3936461 0.6628272 -0.6369482 -0.447211 0.525727
-0.483971 0.716565 -0.502302 -0.3936461 0.6628272 -0.6369482 -0.483971 0.716565
-0.447211 0.525727 -0.723612 -0.5513446 0.5843356 -0.5954586 -0.447211 0.525727
-0.688189 0.499997 -0.525736 -0.5513446 0.5843356 -0.5954586 -0.688189 0.499997
-0.483971 0.716565 -0.502302 -0.5513446 0.5843356 -0.5954586 -0.483971 0.716565
-0.162456 0.499995 -0.850654 -0.3337958 0.4349848 -0.8362826 -0.162456 0.499995
-0.361801 0.262863 -0.894429 -0.3337958 0.4349848 -0.8362826 -0.361801 0.262863
-0.447211 0.525727 -0.723612 -0.3337958 0.4349848 -0.8362826 -0.447211 0.525727
-0.361801 0.262863 -0.894429 -0.4911232 0.3568161 -0.7946573 -0.361801 0.262863
-0.638195 0.262863 -0.723609 -0.4911232 0.3568161 -0.7946573 -0.638195 0.262863
-0.447211 0.525727 -0.723612 -0.4911232 0.3568161 -0.7946573 -0.447211 0.525727
-0.447211 0.525727 -0.723612 -0.5987089 0.4349839 -0.6725598 -0.447211 0.525727
-0.638195 0.262863 -0.723609 -0.5987089 0.4349839 -0.6725598 -0.638195 0.262863
-0.688189 0.499997 -0.525736 -0.5987089 0.4349839 -0.6725598 -0.688189 0.499997
-0.638195 0.262863 -0.723609 -0.7261128 0.3437879 -0.5954579 -0.638195 0.262863
-0.831051 0.238853 -0.502299 -0.7261128 0.3437879 -0.5954579 -0.831051 0.238853
-0.688189 0.499997 -0.525736 -0.7261128 0.3437879 -0.5954579 -0.688189 0.499997
-0.077607 0.238853 -0.96795 -0.233377 0.169558 -0.957489 -0.077607 0.238853
-0.251147 0 -0.967949 -0.233377 0.169558 -0.957489 -0.251147 0.000000
-0.361801 0.262863 -0.894429 -0.233377 0.169558 -0.957489 -0.361801 0.262863
-0.251147 0 -0.967949 -0.3911941 0.09145072 -0.9157532 -0.251147 0.000000
-0.52573 0 -0.850652 -0.3911941 0.09145072 -0.9157532 -0.525730 0.000000
-0.361801 0.262863 -0.894429 -0.3911941 0.09145072 -0.9157532 -0.361801 0.262863
-0.361801 0.262863 -0.894429 -0.5168471 0.183047 -0.8362792 -0.361801 0.262863
-0.52573 0 -0.850652 -0.5168471 0.183047 -0.8362792 -0.525730 0.000000
-0.638195 0.262863 -0.723609 -0.5168471 0.183047 -0.8362792 -0.638195 0.262863
-0.52573 0 -0.850652 -0.6441243 0.09145214 -0.7594343 -0.525730 0.000000
-0.753442 0 -0.657515 -0.6441243 0.09145214 -0.7594343 -0.753442 0.000000
-0.638195 0.262863 -0.723609 -0.6441243 0.09145214 -0.7594343 -0.638195 0.262863
-0.638195 0.262863 -0.723609 -0.75203 0.16956 -0.636946 -0.638195 0.262863
-0.753442 0 -0.657515 -0.75203 0.16956 -0.636946 -0.753442 0.000000
-0.831051 0.238853 -0.502299 -0.75203 0.16956 -0.636946 -0.831051 0.238853
-0.753442 0 -0.657515 -0.827126 0.0915852 -0.554504 -0.753442 0.000000
-0.894426 0 -0.447216 -0.827126 0.0915852 -0.554504 -0.894426 0.000000
-0.831051 0.238853 -0.502299 -0.827126 0.0915852 -0.554504 -0.831051 0.238853
-0.753442 0 -0.657515 -0.827126 -0.0915852 -0.554504 -0.753442 0.000000
-0.831051 -0.238853 -0.502299 -0.827126 -0.0915852 -0.554504 -0.831051 -0.238853
-0.894426 0 -0.447216 -0.827126 -0.0915852 -0.554504 -0.894426 0.000000
-0.52573 0 -0.850652 -0.6441243 -0.09145185 -0.7594343 -0.525730 0.000000
-0.638195 -0.262864 -0.723609 -0.6441243 -0.09145185 -0.7594343 -0.638195 -0.262864
-0.753442 0 -0.657515 -0.6441243 -0.09145185 -0.7594343 -0.753442 0.000000
-0.251147 0 -0.967949 -0.391194 -0.0914539 -0.915753 -0.251147 0.000000
-0.361801 -0.262864 -0.894428 -0.391194 -0.0914539 -0.915753 -0.361801 -0.262864
-0.52573 0 -0.850652 -0.391194 -0.0914539 -0.915753 -0.525730 0.000000
-0.753442 0 -0.657515 -0.7520311 -0.169559 -0.6369451 -0.753442 0.000000
-0.638195 -0.262864 -0.723609 -0.7520311 -0.169559 -0.6369451 -0.638195 -0.262864
-0.831051 -0.238853 -0.502299 -0.7520311 -0.169559 -0.6369451 -0.831051 -0.238853
-0.638195 -0.262864 -0.723609 -0.7261133 -0.3437881 -0.5954573 -0.638195 -0.262864
-0.688189 -0.499997 -0.525736 -0.7261133 -0.3437881 -0.5954573 -0.688189 -0.499997
-0.831051 -0.238853 -0.502299 -0.7261133 -0.3437881 -0.5954573 -0.831051 -0.238853
-0.52573 0 -0.850652 -0.5168439 -0.183048 -0.8362809 -0.525730 0.000000
-0.361801 -0.262864 -0.894428 -0.5168439 -0.183048 -0.8362809 -0.361801 -0.262864
-0.638195 -0.262864 -0.723609 -0.5168439 -0.183048 -0.8362809 -0.638195 -0.262864
-0.361801 -0.262864 -0.894428 -0.49112 -0.356819 -0.794658 -0.361801 -0.262864
-0.447211 -0.525729 -0.72361 -0.49112 -0.356819 -0.794658 -0.447211 -0.525729
-0.638195 -0.262864 -0.723609 -0.49112 -0.356819 -0.794658 -0.638195 -0.262864
-0.638195 -0.262864 -0.723609 -0.5987068 -0.4349869 -0.6725597 -0.638195 -0.262864
-0.447211 -0.525729 -0.72361 -0.5987068 -0.4349869 -0.6725597 -0.447211 -0.525729
-0.688189 -0.499997 -0.525736 -0.5987068 -0.4349869 -0.6725597 -0.688189 -0.499997
-0.447211 -0.525729 -0.72361 -0.5513446 -0.5843356 -0.5954586 -0.447211 -0.525729
-0.483971 -0.716565 -0.502302 -0.5513446 -0.5843356 -0.5954586 -0.483971 -0.716565
-0.688189 -0.499997 -0.525736 -0.5513446 -0.5843356 -0.5954586 -0.688189 -0.499997
-0.251147 0 -0.967949 -0.23338 -0.169559 -0.9574881 -0.251147 0.000000
-0.077607 -0.238853 -0.96795 -0.23338 -0.169559 -0.9574881 -0.077607 -0.238853
-0.361801 -0.262864 -0.894428 -0.23338 -0.169559 -0.9574881 -0.361801 -0.262864
-0.077607 -0.238853 -0.96795 -0.207863 -0.343787 -0.915753 -0.077607 -0.238853
-0.162456 -0.499995 -0.850654 -0.207863 -0.343787 -0.915753 -0.162456 -0.499995
-0.361801 -0.262864 -0.894428 -0.207863 -0.343787 -0.915753 -0.361801 -0.262864
-0.361801 -0.262864 -0.894428 -0.3337979 -0.4349849 -0.8362817 -0.361801 -0.262864
-0.162456 -0.499995 -0.850654 -0.3337979 -0.4349849 -0.8362817 -0.162456 -0.499995
-0.447211 -0.525729 -0.72361 -0.3337979 -0.4349849 -0.8362817 -0.447211 -0.525729
-0.162456 -0.499995 -0.850654 -0.2860171 -0.5843353 -0.7594383 -0.162456 -0.499995
-0.232822 -0.716563 -0.657519 -0.2860171 -0.5843353 -0.7594383 -0.232822 -0.716563
-0.447211 -0.525729 -0.72361 -0.2860171 -0.5843353 -0.7594383 -0.447211 -0.525729
-0.447211 -0.525729 -0.72361 -0.3936461 -0.6628272 -0.6369482 -0.447211 -0.525729
-0.232822 -0.716563 -0.657519 -0.3936461 -0.6628272 -0.6369482 -0.232822 -0.716563
-0.483971 -0.716565 -0.502302 -0.3936461 -0.6628272 -0.6369482 -0.483971 -0.716565
-0.232822 -0.716563 -0.657519 -0.342696 -0.7583399 -0.5545089 -0.232822 -0.716563
-0.276388 -0.850649 -0.44722 -0.342696 -0.7583399 -0.5545089 -0.276388 -0.850649
-0.483971 -0.716565 -0.502302 -0.342696 -0.7583399 -0.5545089 -0.483971 -0.716565
0.812729 0.295238 -0.502301 0.7229921 0.4120721 -0.554508 0.812729 0.295238
0.609547 0.442856 -0.657519 0.7229921 0.4120721 -0.554508 0.609547 0.442856
0.723607 0.525725 -0.44722 0.7229921 0.4120721 -0.554508 0.723607 0.525725
0.850648 0 -0.525736 0.7895103 0.1486671 -0.5954592 0.850648 0.000000
0.670817 0.162457 -0.723611 0.7895103 0.1486671 -0.5954592 0.670817 0.162457
0.812729 0.295238 -0.502301 0.7895103 0.1486671 -0.5954592 0.812729 0.295238
0.812729 -0.295238 -0.502301 0.7895111 -0.148667 -0.595458 0.812729 -0.295238
0.670818 -0.162458 -0.72361 0.7895111 -0.148667 -0.595458 0.670818 -0.162458
0.850648 0 -0.525736 0.7895111 -0.148667 -0.595458 0.850648 0.000000
0.812729 0.295238 -0.502301 0.708071 0.304853 -0.636946 0.812729 0.295238
0.670817 0.162457 -0.723611 0.708071 0.304853 -0.636946 0.670817 0.162457
0.609547 0.442856 -0.657519 0.708071 0.304853 -0.636946 0.609547 0.442856
0.670817 0.162457 -0.723611 0.5748582 0.3046171 -0.7594383 0.670817 0.162457
0.425323 0.309011 -0.850654 0.5748582 0.3046171 -0.7594383 0.425323 0.309011
0.609547 0.442856 -0.657519 0.5748582 0.3046171 -0.7594383 0.609547 0.442856
0.850648 0 -0.525736 0.7400432 8.576063e-08 -0.6725593 0.850648 0.000000
0.670818 -0.162458 -0.72361 0.7400432 8.576063e-08 -0.6725593 0.670818 -0.162458
0.670817 0.162457 -0.723611 0.7400432 8.576063e-08 -0.6725593 0.670817 0.162457
0.670818 -0.162458 -0.72361 0.607056 -6.96421e-07 -0.794659 0.670818 -0.162458
0.447211 -1e-06 -0.894428 0.607056 -6.96421e-07 -0.794659 0.447211 -0.000001
0.670817 0.162457 -0.723611 0.607056 -6.96421e-07 -0.794659 0.670817 0.162457
0.670817 0.162457 -0.723611 0.5257269 0.155704 -0.8362819 0.670817 0.162457
0.447211 -1e-06 -0.894428 0.5257269 0.155704 -0.8362819 0.447211 -0.000001
0.425323 0.309011 -0.850654 0.5257269 0.155704 -0.8362819 0.425323 0.309011
0.447211 -1e-06 -0.894428 0.3702369 0.155948 -0.9157538 0.447211 -0.000001
0.203181 0.147618 -0.96795 0.3702369 0.155948 -0.9157538 0.203181 0.147618
0.425323 0.309011 -0.850654 0.3702369 0.155948 -0.9157538 0.425323 0.309011
0.812729 -0.295238 -0.502301 0.7080712 -0.3048541 -0.6369452 0.812729 -0.295238
0.609547 -0.442856 -0.657519 0.7080712 -0.3048541 -0.6369452 0.609547 -0.442856
0.670818 -0.162458 -0.72361 0.7080712 -0.3048541 -0.6369452 0.670818 -0.162458
0.609547 -0.442856 -0.657519 0.5748582 -0.3046171 -0.7594383 0.609547 -0.442856
0.425323 -0.309011 -0.850654 0.5748582 -0.3046171 -0.7594383 0.425323 -0.309011
0.670818 -0.162458 -0.72361 0.5748582 -0.3046171 -0.7594383 0.670818 -0.162458
0.670818 -0.162458 -0.72361 0.525728 -0.155705 -0.8362811 0.670818 -0.162458
0.425323 -0.309011 -0.850654 0.525728 -0.155705 -0.8362811 0.425323 -0.309011
0.447211 -1e-06 -0.894428 0.525728 -0.155705 -0.8362811 0.447211 -0.000001
0.425323 -0.309011 -0.850654 0.370236 -0.155949 -0.9157539 0.425323 -0.309011
0.203181 -0.147618 -0.96795 0.370236 -0.155949 -0.9157539 0.203181 -0.147618
0.447211 -1e-06 -0.894428 0.370236 -0.155949 -0.9157539 0.447211 -0.000001
0.447211 -1e-06 -0.894428 0.2884739 0 -0.9574878 0.447211 -0.000001
0.203181 -0.147618 -0.96795 0.2884739 0 -0.9574878 0.203181 -0.147618
0.203181 0.147618 -0.96795 0.2884739 0 -0.9574878 0.203181 0.147618
0.203181 -0.147618 -0.96795 0.155815 0 -0.9877862 0.203181 -0.147618
0 0 -1 0.155815 0 -0.9877862 0.000000 0.000000
0.203181 0.147618 -0.96795 0.155815 0 -0.9877862 0.203181 0.147618
-0.232822 -0.716563 -0.657519 -0.168486 -0.8149431 -0.554509 -0.232822 -0.716563
-0.029639 -0.864184 -0.502302 -0.168486 -0.8149431 -0.554509 -0.029639 -0.864184
-0.276388 -0.850649 -0.44722 -0.168486 -0.8149431 -0.554509 -0.276388 -0.850649
-0.162456 -0.499995 -0.850654 -0.112066 -0.6408539 -0.7594389 -0.162456 -0.499995
0.05279 -0.688185 -0.723612 -0.112066 -0.6408539 -0.7594389 0.052790 -0.688185
-0.232822 -0.716563 -0.657519 -0.112066 -0.6408539 -0.7594389 -0.232822 -0.716563
-0.077607 -0.238853 -0.96795 -0.0339078 -0.4003081 -0.9157531 -0.077607 -0.238853
0.138199 -0.425321 -0.894429 -0.0339078 -0.4003081 -0.9157531 0.138199 -0.425321
-0.162456 -0.499995 -0.850654 -0.0339078 -0.4003081 -0.9157531 -0.162456 -0.499995
-0.232822 -0.716563 -0.657519 -0.07112558 -0.7676188 -0.6369478 -0.232822 -0.716563
0.05279 -0.688185 -0.723612 -0.07112558 -0.7676188 -0.6369478 0.052790 -0.688185
-0.029639 -0.864184 -0.502302 -0.07112558 -0.7676188 -0.6369478 -0.029639 -0.864184
0.05279 -0.688185 -0.723612 0.1025829 -0.7968075 -0.5954617 0.052790 -0.688185
0.262869 -0.809012 -0.525738 0.1025829 -0.7968075 -0.5954617 0.262869 -0.809012
-0.029639 -0.864184 -0.502302 0.1025829 -0.7968075 -0.5954617 -0.029639 -0.864184
-0.162456 -0.499995 -0.850654 0.01437329 -0.5481117 -0.8362816 -0.162456 -0.499995
0.138199 -0.425321 -0.894429 0.01437329 -0.5481117 -0.8362816 0.138199 -0.425321
0.05279 -0.688185 -0.723612 0.01437329 -0.5481117 -0.8362816 0.052790 -0.688185
0.138199 -0.425321 -0.894429 0.1875951 -0.5773453 -0.7946574 0.138199 -0.425321
0.361805 -0.587779 -0.723611 0.1875951 -0.5773453 -0.7946574 0.361805 -0.587779
0.05279 -0.688185 -0.723612 0.1875951 -0.5773453 -0.7946574 0.052790 -0.688185
0.05279 -0.688185 -0.723612 0.2286889 -0.7038178 -0.6725638 0.052790 -0.688185
0.361805 -0.587779 -0.723611 0.2286889 -0.7038178 -0.6725638 0.361805 -0.587779
0.262869 -0.809012 -0.525738 0.2286889 -0.7038178 -0.6725638 0.262869 -0.809012
0.361805 -0.587779 -0.723611 0.3853691 -0.7049241 -0.5954601 0.361805 -0.587779
0.531941 -0.681712 -0.502302 0.3853691 -0.7049241 -0.5954601 0.531941 -0.681712
0.262869 -0.809012 -0.525738 0.3853691 -0.7049241 -0.5954601 0.262869 -0.809012
-0.077607 -0.238853 -0.96795 0.08914359 -0.274351 -0.9574889 -0.077607 -0.238853
0.203181 -0.147618 -0.96795 0.08914359 -0.274351 -0.9574889 0.203181 -0.147618
0.138199 -0.425321 -0.894429 0.08914359 -0.274351 -0.9574889 0.138199 -0.425321
0.203181 -0.147618 -0.96795 0.2627299 -0.303921 -0.9157538 0.203181 -0.147618
0.425323 -0.309011 -0.850654 0.2627299 -0.303921 -0.9157538 0.425323 -0.309011
0.138199 -0.425321 -0.894429 0.2627299 -0.303921 -0.9157538 0.138199 -0.425321
0.138199 -0.425321 -0.894429 0.310549 -0.451878 -0.8362809 0.138199 -0.425321
0.425323 -0.309011 -0.850654 0.310549 -0.451878 -0.8362809 0.425323 -0.309011
0.361805 -0.587779 -0.723611 0.310549 -0.451878 -0.8362809 0.361805 -0.587779
0.425323 -0.309011 -0.850654 0.467353 -0.452587 -0.759438 0.425323 -0.309011
0.609547 -0.442856 -0.657519 0.467353 -0.452587 -0.759438 0.609547 -0.442856
0.361805 -0.587779 -0.723611 0.467353 -0.452587 -0.759438 0.361805 -0.587779
0.361805 -0.587779 -0.723611 0.5087439 -0.5792049 -0.6369469 0.361805 -0.587779
0.609547 -0.442856 -0.657519 0.5087439 -0.5792049 -0.6369469 0.609547 -0.442856
0.531941 -0.681712 -0.502302 0.5087439 -0.5792049 -0.6369469 0.531941 -0.681712
0.609547 -0.442856 -0.657519 0.615326 -0.560263 -0.554508 0.609547 -0.442856
0.723607 -0.525725 -0.44722 0.615326 -0.560263 -0.554508 0.723607 -0.525725
0.531941 -0.681712 -0.502302 0.615326 -0.560263 -0.554508 0.531941 -0.681712
3 0 1 2 
3 3 4 5 
3 6 7 8 
3 9 10 11 
3 12 13 14 
3 15 16 17 
3 18 19 20 
3 21 22 23 
3 24 25 26 
3 27 28 29 
3 30 31 32 
3 33 34 35 
3 36 37 38 
3 39 40 41 
3 42 43 44 
3 45 46 47 
3 48 49 50 
3 51 52 53 
3 54 55 56 
3 57 58 59 
3 60 61 62 
3 63 64 65 
3 66 67 68 
3 69 70 71 
3 72 73 74 
3 75 76 77 
3 78 79 80 
3 81 82 83 
3 84 85 86 
3 87 88 89 
3 90 91 92 
3 93 94 95 
3 96 97 98 
3 99 100 101 
3 102 103 104 
3 105 106 107 
3 108 109 110 
3 111 112 113 
3 114 115 116 
3 117 118 119 
3 120 121 122 
3 123 124 125 
3 126 127 128 
3 129 130 131 
3 132 133 134 
3 135 136 137 
3 138 139 140 
3 141 142 143 
3 144 145 146 
3 147 148 149 
3 150 151 152 
3 153 154 155 
3 156 157 158 
3 159 160 161 
3 162 163 164 
3 165 166 167 
3 168 169 170 
3 171 172 173 
3 174 175 176 
3 177 178 179 
3 180 181 182 
3 183 184 185 
3 186 187 188 
3 189 190 191 
3 192 193 194 
3 195 196 197 
3 198 199 200 
3 201 202 203 
3 204 205 206 
3 207 208 209 
3 210 211 212 
3 213 214 215 
3 216 217 218 
3 219 220 221 
3 222 223 224 
3 225 226 227 
3 228 229 230 
3 231 232 233 
3 234 235 236 
3 237 238 239 
3 240 241 242 
3 243 244 245 
3 246 247 248 
3 249 250 251 
3 252 253 254 
3 255 256 257 
3 258 259 260 
3 261 262 263 
3 264 265 266 
3 267 268 269 
3 270 271 272 
3 273 274 275 
3 276 277 278 
3 279 280 281 
3 282 283 284 
3 285 286 287 
3 288 289 290 
3 291 292 293 
3 294 295 296 
3 297 298 299 
3 300 301 302 
3 303 304 305 
3 306 307 308 
3 309 310 311 
3 312 313 314 
3 315 316 317 
3 318 319 320 
3 321 322 323 
3 324 325 326 
3 327 328 329 
3 330 331 332 
3 333 334 335 
3 336 337 338 
3 339 340 341 
3 342 343 344 
3 345 346 347 
3 348 349 350 
3 351 352 353 
3 354 355 356 
3 357 358 359 
3 360 361 362 
3 363 364 365 
3 366 367 368 
3 369 370 371 
3 372 373 374 
3 375 376 377 
3 378 379 380 
3 381 382 383 
3 384 385 386 
3 387 388 389 
3 390 391 392 
3 393 394 395 
3 396 397 398 
3 399 400 401 
3 402 403 404 
3 405 406 407 
3 408 409 410 
3 411 412 413 
3 414 415 416 
3 417 418 419 
3 420 421 422 
3 423 424 425 
3 426 427 428 
3 429 430 431 
3 432 433 434 
3 435 436 437 
3 438 439 440 
3 441 442 443 
3 444 445 446 
3 447 448 449 
3 450 451 452 
3 453 454 455 
3 456 457 458 
3 459 460 461 
3 462 463 464 
3 465 466 467 
3 468 469 470 
3 471 472 473 
3 474 475 476 
3 477 478 479 
3 480 481 482 
3 483 484 485 
3 486 487 488 
3 489 490 491 
3 492 493 494 
3 495 496 497 
3 498 499 500 
3 501 502 503 
3 504 505 506 
3 507 508 509 
3 510 511 512 
3 513 514 515 
3 516 517 518 
3 519 520 521 
3 522 523 524 
3 525 526 527 
3 528 529 530 
3 531 532 533 
3 534 535 536 
3 537 538 539 
3 540 541 542 
3 543 544 545 
3 546 547 548 
3 549 550 551 
3 552 553 554 
3 555 556 557 
3 558 559 560 
3 561 562 563 
3 564 565 566 
3 567 568 569 
3 570 571 572 
3 573 574 575 
3 576 577 578 
3 579 580 581 
3 582 583 584 
3 585 586 587 
3 588 589 590 
3 591 592 593 
3 594 595 596 
3 597 598 599 
3 600 601 602 
3 603 604 605 
3 606 607 608 
3 609 610 611 
3 612 613 614 
3 615 616 617 
3 618 619 620 
3 621 622 623 
3 624 625 626 
3 627 628 629 
3 630 631 632 
3 633 634 635 
3 636 637 638 
3 639 640 641 
3 642 643 644 
3 645 646 647 
3 648 649 650 
3 651 652 653 
3 654 655 656 
3 657 658 659 
3 660 661 662 
3 663 664 665 
3 666 667 668 
3 669 670 671 
3 672 673 674 
3 675 676 677 
3 678 679 680 
3 681 682 683 
3 684 685 686 
3 687 688 689 
3 690 691 692 
3 693 694 695 
3 696 697 698 
3 699 700 701 
3 702 703 704 
3 705 706 707 
3 708 709 710 
3 711 712 713 
3 714 715 716 
3 717 718 719 
3 720 721 722 
3 723 724 725 
3 726 727 728 
3 729 730 731 
3 732 733 734 
3 735 736 737 
3 738 739 740 
3 741 742 743 
3 744 745 746 
3 747 748 749 
3 750 751 752 
3 753 754 755 
3 756 757 758 
3 759 760 761 
3 762 763 764 
3 765 766 767 
3 768 769 770 
3 771 772 773 
3 774 775 776 
3 777 778 779 
3 780 781 782 
3 783 784 785 
3 786 787 788 
3 789 790 791 
3 792 793 794 
3 795 796 797 
3 798 799 800 
3 801 802 803 
3 804 805 806 
3 807 808 809 
3 810 811 812 
3 813 814 815 
3 816 817 818 
3 819 820 821 
3 822 823 824 
3 825 826 827 
3 828 829 830 
3 831 832 833 
3 834 835 836 
3 837 838 839 
3 840 841 842 
3 843 844 845 
3 846 847 848 
3 849 850 851 
3 852 853 854 
3 855 856 857 
3 858 859 860 
3 861 862 863 
3 864 865 866 
3 867 868 869 
3 870 871 872 
3 873 874 875 
3 876 877 878 
3 879 880 881 
3 882 883 884 
3 885 886 887 
3 888 889 890 
3 891 892 893 
3 894 895 896 
3 897 898 899 
3 900 901 902 
3 903 904 905 
3 906 907 908 
3 909 910 911 
3 912 913 914 
3 915 916 917 
3 918 919 920 
3 921 922 923 
3 924 925 926 
3 927 928 929 
3 930 931 932 
3 933 934 935 
3 936 937 938 
3 939 940 941 
3 942 943 944 
3 945 946 947 
3 948 949 950 
3 951 952 953 
3 954 955 956 
3 957 958 959 
